%YAML 1.1
%TAG !u! tag:unity3d.com,2011:
--- !u!1 &1019125237027160
GameObject:
  m_ObjectHideFlags: 0
  m_CorrespondingSourceObject: {fileID: 0}
  m_PrefabInstance: {fileID: 0}
  m_PrefabAsset: {fileID: 0}
  serializedVersion: 6
  m_Component:
  - component: {fileID: 4634360491792354}
  m_Layer: 0
  m_Name: magazine_Right
  m_TagString: Untagged
  m_Icon: {fileID: 0}
  m_NavMeshLayer: 0
  m_StaticEditorFlags: 0
  m_IsActive: 1
--- !u!4 &4634360491792354
Transform:
  m_ObjectHideFlags: 0
  m_CorrespondingSourceObject: {fileID: 0}
  m_PrefabInstance: {fileID: 0}
  m_PrefabAsset: {fileID: 0}
  m_GameObject: {fileID: 1019125237027160}
  m_LocalRotation: {x: -0.4881349, y: 0.5173824, z: 0.48743477, w: 0.5064061}
  m_LocalPosition: {x: -0.00004472253, y: -0.40147856, z: 0.0003500123}
  m_LocalScale: {x: 1, y: 1, z: 1}
  m_Children: []
  m_Father: {fileID: 4755017300832772}
  m_RootOrder: 0
  m_LocalEulerAnglesHint: {x: 0, y: 0, z: 0}
--- !u!1 &1033353440287820
GameObject:
  m_ObjectHideFlags: 0
  m_CorrespondingSourceObject: {fileID: 0}
  m_PrefabInstance: {fileID: 0}
  m_PrefabAsset: {fileID: 0}
  serializedVersion: 6
  m_Component:
  - component: {fileID: 4390648618449408}
  m_Layer: 0
  m_Name: RestOfFingers_Intermediate_Left
  m_TagString: Untagged
  m_Icon: {fileID: 0}
  m_NavMeshLayer: 0
  m_StaticEditorFlags: 0
  m_IsActive: 1
--- !u!4 &4390648618449408
Transform:
  m_ObjectHideFlags: 0
  m_CorrespondingSourceObject: {fileID: 0}
  m_PrefabInstance: {fileID: 0}
  m_PrefabAsset: {fileID: 0}
  m_GameObject: {fileID: 1033353440287820}
  m_LocalRotation: {x: 0.0061717043, y: 0.012478555, z: 0.3440602, w: 0.9388444}
  m_LocalPosition: {x: -0.08025859, y: -1.1368684e-15, z: -5.3290704e-17}
  m_LocalScale: {x: 1, y: 1, z: 1}
  m_Children:
  - {fileID: 4457406632358866}
  m_Father: {fileID: 4854802934796946}
  m_RootOrder: 0
  m_LocalEulerAnglesHint: {x: 0, y: 0, z: 0}
--- !u!1 &1037878260371564
GameObject:
  m_ObjectHideFlags: 0
  m_CorrespondingSourceObject: {fileID: 0}
  m_PrefabInstance: {fileID: 0}
  m_PrefabAsset: {fileID: 0}
  serializedVersion: 6
  m_Component:
  - component: {fileID: 4800983036181300}
  m_Layer: 0
  m_Name: ShoulderPadBlade_Left
  m_TagString: Untagged
  m_Icon: {fileID: 0}
  m_NavMeshLayer: 0
  m_StaticEditorFlags: 0
  m_IsActive: 1
--- !u!4 &4800983036181300
Transform:
  m_ObjectHideFlags: 0
  m_CorrespondingSourceObject: {fileID: 0}
  m_PrefabInstance: {fileID: 0}
  m_PrefabAsset: {fileID: 0}
  m_GameObject: {fileID: 1037878260371564}
  m_LocalRotation: {x: 0.0066350633, y: -0.011333145, z: 0.5051939, w: 0.862906}
  m_LocalPosition: {x: -0.13296959, y: -0.22176832, z: -0.0050734016}
  m_LocalScale: {x: 1, y: 1, z: 1}
  m_Children: []
  m_Father: {fileID: 4039510067716268}
  m_RootOrder: 0
  m_LocalEulerAnglesHint: {x: 0, y: 0, z: 0}
--- !u!1 &1040019394194996
GameObject:
  m_ObjectHideFlags: 0
  m_CorrespondingSourceObject: {fileID: 0}
  m_PrefabInstance: {fileID: 0}
  m_PrefabAsset: {fileID: 0}
  serializedVersion: 6
  m_Component:
  - component: {fileID: 4765476893222964}
  m_Layer: 0
  m_Name: Foot_Left
  m_TagString: Untagged
  m_Icon: {fileID: 0}
  m_NavMeshLayer: 0
  m_StaticEditorFlags: 0
  m_IsActive: 1
--- !u!4 &4765476893222964
Transform:
  m_ObjectHideFlags: 0
  m_CorrespondingSourceObject: {fileID: 0}
  m_PrefabInstance: {fileID: 0}
  m_PrefabAsset: {fileID: 0}
  m_GameObject: {fileID: 1040019394194996}
  m_LocalRotation: {x: 0.8193084, y: 0.56578285, z: -0.02233458, w: 0.09013736}
  m_LocalPosition: {x: -0.62734693, y: 2.842171e-16, z: -1.7763567e-16}
  m_LocalScale: {x: 1, y: 1, z: 1}
  m_Children:
  - {fileID: 4735963518054312}
  m_Father: {fileID: 4268404377392276}
  m_RootOrder: 0
  m_LocalEulerAnglesHint: {x: 0, y: 0, z: 0}
--- !u!1 &1048284501198340
GameObject:
  m_ObjectHideFlags: 0
  m_CorrespondingSourceObject: {fileID: 0}
  m_PrefabInstance: {fileID: 0}
  m_PrefabAsset: {fileID: 0}
  serializedVersion: 6
  m_Component:
  - component: {fileID: 4179306738525998}
  m_Layer: 0
  m_Name: ArmPlacement_Left
  m_TagString: Untagged
  m_Icon: {fileID: 0}
  m_NavMeshLayer: 0
  m_StaticEditorFlags: 0
  m_IsActive: 1
--- !u!4 &4179306738525998
Transform:
  m_ObjectHideFlags: 0
  m_CorrespondingSourceObject: {fileID: 0}
  m_PrefabInstance: {fileID: 0}
  m_PrefabAsset: {fileID: 0}
  m_GameObject: {fileID: 1048284501198340}
  m_LocalRotation: {x: -0.002378591, y: 0.08787313, z: 0.02695381, w: 0.99576414}
  m_LocalPosition: {x: -0.44450283, y: 2.842171e-16, z: -2.1316282e-16}
  m_LocalScale: {x: 1, y: 1, z: 1}
  m_Children: []
  m_Father: {fileID: 4154928250372666}
  m_RootOrder: 0
  m_LocalEulerAnglesHint: {x: 0, y: 0, z: 0}
--- !u!1 &1048386244074630
GameObject:
  m_ObjectHideFlags: 0
  m_CorrespondingSourceObject: {fileID: 0}
  m_PrefabInstance: {fileID: 0}
  m_PrefabAsset: {fileID: 0}
  serializedVersion: 6
  m_Component:
  - component: {fileID: 4456058634490908}
  m_Layer: 0
  m_Name: LowerArm_Left
  m_TagString: Untagged
  m_Icon: {fileID: 0}
  m_NavMeshLayer: 0
  m_StaticEditorFlags: 0
  m_IsActive: 1
--- !u!4 &4456058634490908
Transform:
  m_ObjectHideFlags: 0
  m_CorrespondingSourceObject: {fileID: 0}
  m_PrefabInstance: {fileID: 0}
  m_PrefabAsset: {fileID: 0}
  m_GameObject: {fileID: 1048386244074630}
  m_LocalRotation: {x: -1.11818e-29, y: 0.049585894, z: 1.0904029e-28, w: 0.9987699}
  m_LocalPosition: {x: -0.3366694, y: 2.842171e-16, z: 4.2188474e-17}
  m_LocalScale: {x: 1, y: 1, z: 1}
  m_Children:
  - {fileID: 4871742413835510}
  m_Father: {fileID: 4470568240115528}
  m_RootOrder: 0
  m_LocalEulerAnglesHint: {x: 0, y: 0, z: 0}
--- !u!1 &1052587754313098
GameObject:
  m_ObjectHideFlags: 0
  m_CorrespondingSourceObject: {fileID: 0}
  m_PrefabInstance: {fileID: 0}
  m_PrefabAsset: {fileID: 0}
  serializedVersion: 6
  m_Component:
  - component: {fileID: 4830185290988036}
  m_Layer: 0
  m_Name: Toetip_Right
  m_TagString: Untagged
  m_Icon: {fileID: 0}
  m_NavMeshLayer: 0
  m_StaticEditorFlags: 0
  m_IsActive: 1
--- !u!4 &4830185290988036
Transform:
  m_ObjectHideFlags: 0
  m_CorrespondingSourceObject: {fileID: 0}
  m_PrefabInstance: {fileID: 0}
  m_PrefabAsset: {fileID: 0}
  m_GameObject: {fileID: 1052587754313098}
  m_LocalRotation: {x: -0.00028878966, y: 0.016934738, z: -0.012053749, w: 0.99978393}
  m_LocalPosition: {x: -0.17883855, y: -2.6645352e-17, z: -1.4210854e-16}
  m_LocalScale: {x: 1, y: 1, z: 1}
  m_Children: []
  m_Father: {fileID: 4897548536715478}
  m_RootOrder: 0
  m_LocalEulerAnglesHint: {x: 0, y: 0, z: 0}
--- !u!1 &1056728511825212
GameObject:
  m_ObjectHideFlags: 0
  m_CorrespondingSourceObject: {fileID: 0}
  m_PrefabInstance: {fileID: 0}
  m_PrefabAsset: {fileID: 0}
  serializedVersion: 6
  m_Component:
  - component: {fileID: 4596754466478884}
  m_Layer: 0
  m_Name: ArmPlacement_Right
  m_TagString: Untagged
  m_Icon: {fileID: 0}
  m_NavMeshLayer: 0
  m_StaticEditorFlags: 0
  m_IsActive: 1
--- !u!4 &4596754466478884
Transform:
  m_ObjectHideFlags: 0
  m_CorrespondingSourceObject: {fileID: 0}
  m_PrefabInstance: {fileID: 0}
  m_PrefabAsset: {fileID: 0}
  m_GameObject: {fileID: 1056728511825212}
  m_LocalRotation: {x: -0.02695381, y: 0.99576414, z: -0.0023785909, w: -0.08787313}
  m_LocalPosition: {x: 0.41471434, y: 0.046548404, z: -0.15306102}
  m_LocalScale: {x: 1, y: 1, z: 1}
  m_Children: []
  m_Father: {fileID: 4154928250372666}
  m_RootOrder: 1
  m_LocalEulerAnglesHint: {x: 0, y: 0, z: 0}
--- !u!1 &1074262905448050
GameObject:
  m_ObjectHideFlags: 0
  m_CorrespondingSourceObject: {fileID: 0}
  m_PrefabInstance: {fileID: 0}
  m_PrefabAsset: {fileID: 0}
  serializedVersion: 6
  m_Component:
  - component: {fileID: 4752124052192574}
  m_Layer: 0
  m_Name: Trigger_Right
  m_TagString: Untagged
  m_Icon: {fileID: 0}
  m_NavMeshLayer: 0
  m_StaticEditorFlags: 0
  m_IsActive: 1
--- !u!4 &4752124052192574
Transform:
  m_ObjectHideFlags: 0
  m_CorrespondingSourceObject: {fileID: 0}
  m_PrefabInstance: {fileID: 0}
  m_PrefabAsset: {fileID: 0}
  m_GameObject: {fileID: 1074262905448050}
  m_LocalRotation: {x: -0.0031178175, y: 0.0071248533, z: 0.40088162, w: 0.91609687}
  m_LocalPosition: {x: -0.09913989, y: -0.107317016, z: 0.09284221}
  m_LocalScale: {x: 1, y: 1, z: 1}
  m_Children: []
  m_Father: {fileID: 4755017300832772}
  m_RootOrder: 1
  m_LocalEulerAnglesHint: {x: 0, y: 0, z: 0}
--- !u!1 &1088446404920904
GameObject:
  m_ObjectHideFlags: 0
  m_CorrespondingSourceObject: {fileID: 0}
  m_PrefabInstance: {fileID: 0}
  m_PrefabAsset: {fileID: 0}
  serializedVersion: 6
  m_Component:
  - component: {fileID: 4461509016300196}
  - component: {fileID: 95773181460988712}
  - component: {fileID: 1216597072}
  m_Layer: 0
  m_Name: SciFiWarriorPBR
  m_TagString: Untagged
  m_Icon: {fileID: 0}
  m_NavMeshLayer: 0
  m_StaticEditorFlags: 0
  m_IsActive: 1
--- !u!4 &4461509016300196
Transform:
  m_ObjectHideFlags: 0
  m_CorrespondingSourceObject: {fileID: 0}
  m_PrefabInstance: {fileID: 0}
  m_PrefabAsset: {fileID: 0}
  m_GameObject: {fileID: 1088446404920904}
  m_LocalRotation: {x: 0, y: 0, z: 0, w: 1}
  m_LocalPosition: {x: 0, y: 0, z: 0}
  m_LocalScale: {x: 0.8948349, y: 0.8948349, z: 0.8948349}
  m_Children:
  - {fileID: 4045728069165238}
  - {fileID: 4494991074691304}
  - {fileID: 4674408266398956}
  - {fileID: 4806676996698870}
  - {fileID: 4470283264474244}
  - {fileID: 4155302749411800}
  - {fileID: 4620313704226320}
  m_Father: {fileID: 0}
  m_RootOrder: 0
  m_LocalEulerAnglesHint: {x: 0, y: 0, z: 0}
--- !u!95 &95773181460988712
Animator:
  serializedVersion: 3
  m_ObjectHideFlags: 0
  m_CorrespondingSourceObject: {fileID: 0}
  m_PrefabInstance: {fileID: 0}
  m_PrefabAsset: {fileID: 0}
  m_GameObject: {fileID: 1088446404920904}
  m_Enabled: 1
  m_Avatar: {fileID: 9000000, guid: 4d1a7012e497b5645b59962f4f76af8f, type: 3}
  m_Controller: {fileID: 9100000, guid: 5f3a73a900153aa4fb23e10609cce0ff, type: 2}
  m_CullingMode: 1
  m_UpdateMode: 0
  m_ApplyRootMotion: 0
  m_LinearVelocityBlending: 0
  m_WarningMessage: 
  m_HasTransformHierarchy: 1
  m_AllowConstantClipSamplingOptimization: 1
  m_KeepAnimatorControllerStateOnDisable: 0
--- !u!195 &1216597072
NavMeshAgent:
  m_ObjectHideFlags: 0
  m_CorrespondingSourceObject: {fileID: 0}
  m_PrefabInstance: {fileID: 0}
  m_PrefabAsset: {fileID: 0}
  m_GameObject: {fileID: 1088446404920904}
  m_Enabled: 1
  m_AgentTypeID: 0
  m_Radius: 0.5
  m_Speed: 3.5
  m_Acceleration: 8
  avoidancePriority: 50
  m_AngularSpeed: 120
  m_StoppingDistance: 0
  m_AutoTraverseOffMeshLink: 1
  m_AutoBraking: 1
  m_AutoRepath: 1
  m_Height: 2
  m_BaseOffset: 0
  m_WalkableMask: 4294967295
  m_ObstacleAvoidanceType: 4
--- !u!1 &1105489298854416
GameObject:
  m_ObjectHideFlags: 0
  m_CorrespondingSourceObject: {fileID: 0}
  m_PrefabInstance: {fileID: 0}
  m_PrefabAsset: {fileID: 0}
  serializedVersion: 6
  m_Component:
  - component: {fileID: 4843204777420052}
  m_Layer: 0
  m_Name: Headgear_Right
  m_TagString: Untagged
  m_Icon: {fileID: 0}
  m_NavMeshLayer: 0
  m_StaticEditorFlags: 0
  m_IsActive: 1
--- !u!4 &4843204777420052
Transform:
  m_ObjectHideFlags: 0
  m_CorrespondingSourceObject: {fileID: 0}
  m_PrefabInstance: {fileID: 0}
  m_PrefabAsset: {fileID: 0}
  m_GameObject: {fileID: 1105489298854416}
  m_LocalRotation: {x: -0.5234402, y: 0.54638463, z: 0.47540554, w: 0.4488473}
  m_LocalPosition: {x: 0.013088211, y: 0.03871166, z: 0.12853171}
  m_LocalScale: {x: 1, y: 1, z: 1}
  m_Children: []
  m_Father: {fileID: 4932858909452198}
  m_RootOrder: 1
  m_LocalEulerAnglesHint: {x: 0, y: 0, z: 0}
--- !u!1 &1116169183572184
GameObject:
  m_ObjectHideFlags: 0
  m_CorrespondingSourceObject: {fileID: 0}
  m_PrefabInstance: {fileID: 0}
  m_PrefabAsset: {fileID: 0}
  serializedVersion: 6
  m_Component:
  - component: {fileID: 4620313704226320}
  - component: {fileID: 137848679658610670}
  m_Layer: 0
  m_Name: Leg1
  m_TagString: Untagged
  m_Icon: {fileID: 0}
  m_NavMeshLayer: 0
  m_StaticEditorFlags: 0
  m_IsActive: 1
--- !u!4 &4620313704226320
Transform:
  m_ObjectHideFlags: 0
  m_CorrespondingSourceObject: {fileID: 0}
  m_PrefabInstance: {fileID: 0}
  m_PrefabAsset: {fileID: 0}
  m_GameObject: {fileID: 1116169183572184}
  m_LocalRotation: {x: 0, y: -0, z: -0, w: 1}
  m_LocalPosition: {x: -0, y: 0, z: 0}
  m_LocalScale: {x: 1, y: 1, z: 1}
  m_Children: []
  m_Father: {fileID: 4461509016300196}
  m_RootOrder: 6
  m_LocalEulerAnglesHint: {x: 0, y: 0, z: 0}
--- !u!137 &137848679658610670
SkinnedMeshRenderer:
  m_ObjectHideFlags: 0
  m_CorrespondingSourceObject: {fileID: 0}
  m_PrefabInstance: {fileID: 0}
  m_PrefabAsset: {fileID: 0}
  m_GameObject: {fileID: 1116169183572184}
  m_Enabled: 1
  m_CastShadows: 1
  m_ReceiveShadows: 1
  m_DynamicOccludee: 1
  m_MotionVectors: 1
  m_LightProbeUsage: 1
  m_ReflectionProbeUsage: 1
  m_RenderingLayerMask: 1
  m_RendererPriority: 0
  m_Materials:
  - {fileID: 2100000, guid: 1666fb81395f51e4293b01cca8f58481, type: 2}
  m_StaticBatchInfo:
    firstSubMesh: 0
    subMeshCount: 0
  m_StaticBatchRoot: {fileID: 0}
  m_ProbeAnchor: {fileID: 0}
  m_LightProbeVolumeOverride: {fileID: 0}
  m_ScaleInLightmap: 1
  m_PreserveUVs: 0
  m_IgnoreNormalsForChartDetection: 0
  m_ImportantGI: 0
  m_StitchLightmapSeams: 0
  m_SelectedEditorRenderState: 3
  m_MinimumChartSize: 4
  m_AutoUVMaxDistance: 0.5
  m_AutoUVMaxAngle: 89
  m_LightmapParameters: {fileID: 0}
  m_SortingLayerID: 0
  m_SortingLayer: 0
  m_SortingOrder: 0
  serializedVersion: 2
  m_Quality: 0
  m_UpdateWhenOffscreen: 0
  m_SkinnedMotionVectors: 1
  m_Mesh: {fileID: 4300008, guid: 4d1a7012e497b5645b59962f4f76af8f, type: 3}
  m_Bones:
  - {fileID: 4155302749411800}
  - {fileID: 4767384517146274}
  - {fileID: 4576326817692418}
  - {fileID: 4265529914067468}
  - {fileID: 4932858909452198}
  - {fileID: 4329572861923796}
  - {fileID: 4843204777420052}
  - {fileID: 4366149864032364}
  - {fileID: 4470568240115528}
  - {fileID: 4456058634490908}
  - {fileID: 4871742413835510}
  - {fileID: 4854802934796946}
  - {fileID: 4390648618449408}
  - {fileID: 4457406632358866}
  - {fileID: 4578618137329070}
  - {fileID: 4389953804475430}
  - {fileID: 4077082529006744}
  - {fileID: 4809867879811190}
  - {fileID: 4176839478663502}
  - {fileID: 4643318649315900}
  - {fileID: 4039510067716268}
  - {fileID: 4615783751978818}
  - {fileID: 4800983036181300}
  - {fileID: 4286910237292538}
  - {fileID: 4489576988091544}
  - {fileID: 4072028953399544}
  - {fileID: 4351849754679398}
  - {fileID: 4071872300658134}
  - {fileID: 4526359462726868}
  - {fileID: 4206333357611724}
  - {fileID: 4864853016498246}
  - {fileID: 4440206237161212}
  - {fileID: 4947493090804402}
  - {fileID: 4006512851812304}
  - {fileID: 4406224506356134}
  - {fileID: 4101758752499076}
  - {fileID: 4096300428845348}
  - {fileID: 4368840417456198}
  - {fileID: 4589171139438602}
  - {fileID: 4154928250372666}
  - {fileID: 4179306738525998}
  - {fileID: 4662635638205438}
  - {fileID: 4596754466478884}
  - {fileID: 4743861860367394}
  - {fileID: 4268404377392276}
  - {fileID: 4765476893222964}
  - {fileID: 4735963518054312}
  - {fileID: 4294564499881050}
  - {fileID: 4088755167668274}
  - {fileID: 4106520695970086}
  - {fileID: 4460367585722266}
  - {fileID: 4897548536715478}
  - {fileID: 4830185290988036}
  - {fileID: 4755017300832772}
  - {fileID: 4634360491792354}
  - {fileID: 4752124052192574}
  - {fileID: 4158355576759758}
  m_BlendShapeWeights: []
  m_RootBone: {fileID: 4155302749411800}
  m_AABB:
    m_Center: {x: 0.5324072, y: -0.15325764, z: 0.0017396808}
    m_Extent: {x: 0.6929026, y: 0.36121455, z: 0.51771015}
  m_DirtyAABB: 0
--- !u!1 &1160775415312042
GameObject:
  m_ObjectHideFlags: 0
  m_CorrespondingSourceObject: {fileID: 0}
  m_PrefabInstance: {fileID: 0}
  m_PrefabAsset: {fileID: 0}
  serializedVersion: 6
  m_Component:
  - component: {fileID: 4947493090804402}
  m_Layer: 0
  m_Name: Index_Distal_Right
  m_TagString: Untagged
  m_Icon: {fileID: 0}
  m_NavMeshLayer: 0
  m_StaticEditorFlags: 0
  m_IsActive: 1
--- !u!4 &4947493090804402
Transform:
  m_ObjectHideFlags: 0
  m_CorrespondingSourceObject: {fileID: 0}
  m_PrefabInstance: {fileID: 0}
  m_PrefabAsset: {fileID: 0}
  m_GameObject: {fileID: 1160775415312042}
  m_LocalRotation: {x: 0.012835801, y: 0.013473716, z: 0.08711711, w: 0.99602425}
  m_LocalPosition: {x: -0.07978544, y: 1.7053025e-15, z: 4.4408918e-17}
  m_LocalScale: {x: 1, y: 1, z: 1}
  m_Children: []
  m_Father: {fileID: 4440206237161212}
  m_RootOrder: 0
  m_LocalEulerAnglesHint: {x: 0, y: 0, z: 0}
--- !u!1 &1178200956207398
GameObject:
  m_ObjectHideFlags: 0
  m_CorrespondingSourceObject: {fileID: 0}
  m_PrefabInstance: {fileID: 0}
  m_PrefabAsset: {fileID: 0}
  serializedVersion: 6
  m_Component:
  - component: {fileID: 4460367585722266}
  m_Layer: 0
  m_Name: Foot_Right
  m_TagString: Untagged
  m_Icon: {fileID: 0}
  m_NavMeshLayer: 0
  m_StaticEditorFlags: 0
  m_IsActive: 1
--- !u!4 &4460367585722266
Transform:
  m_ObjectHideFlags: 0
  m_CorrespondingSourceObject: {fileID: 0}
  m_PrefabInstance: {fileID: 0}
  m_PrefabAsset: {fileID: 0}
  m_GameObject: {fileID: 1178200956207398}
  m_LocalRotation: {x: 0.81892335, y: 0.5656828, z: 0.024710972, w: -0.09357782}
  m_LocalPosition: {x: -0.6273464, y: -9.7699626e-17, z: 2.4868996e-16}
  m_LocalScale: {x: 1, y: 1, z: 1}
  m_Children:
  - {fileID: 4897548536715478}
  m_Father: {fileID: 4106520695970086}
  m_RootOrder: 0
  m_LocalEulerAnglesHint: {x: 0, y: 0, z: 0}
--- !u!1 &1182627009475368
GameObject:
  m_ObjectHideFlags: 0
  m_CorrespondingSourceObject: {fileID: 0}
  m_PrefabInstance: {fileID: 0}
  m_PrefabAsset: {fileID: 0}
  serializedVersion: 6
  m_Component:
  - component: {fileID: 4366149864032364}
  m_Layer: 0
  m_Name: Shoulder_Left
  m_TagString: Untagged
  m_Icon: {fileID: 0}
  m_NavMeshLayer: 0
  m_StaticEditorFlags: 0
  m_IsActive: 1
--- !u!4 &4366149864032364
Transform:
  m_ObjectHideFlags: 0
  m_CorrespondingSourceObject: {fileID: 0}
  m_PrefabInstance: {fileID: 0}
  m_PrefabAsset: {fileID: 0}
  m_GameObject: {fileID: 1182627009475368}
  m_LocalRotation: {x: -0.2988425, y: 0.7341269, z: 0.41826975, w: 0.4436229}
  m_LocalPosition: {x: -0.12348807, y: -0.062974095, z: 0.18706107}
  m_LocalScale: {x: 1, y: 1, z: 1}
  m_Children:
  - {fileID: 4039510067716268}
  - {fileID: 4470568240115528}
  m_Father: {fileID: 4576326817692418}
  m_RootOrder: 2
  m_LocalEulerAnglesHint: {x: 0, y: 0, z: 0}
--- !u!1 &1189734744582124
GameObject:
  m_ObjectHideFlags: 0
  m_CorrespondingSourceObject: {fileID: 0}
  m_PrefabInstance: {fileID: 0}
  m_PrefabAsset: {fileID: 0}
  serializedVersion: 6
  m_Component:
  - component: {fileID: 4329572861923796}
  m_Layer: 0
  m_Name: Headgear_Left
  m_TagString: Untagged
  m_Icon: {fileID: 0}
  m_NavMeshLayer: 0
  m_StaticEditorFlags: 0
  m_IsActive: 1
--- !u!4 &4329572861923796
Transform:
  m_ObjectHideFlags: 0
  m_CorrespondingSourceObject: {fileID: 0}
  m_PrefabInstance: {fileID: 0}
  m_PrefabAsset: {fileID: 0}
  m_GameObject: {fileID: 1189734744582124}
  m_LocalRotation: {x: 0.47540554, y: -0.4488473, z: 0.5234402, w: 0.54638463}
  m_LocalPosition: {x: -8.5265126e-16, y: -6.5503156e-17, z: -0.1348708}
  m_LocalScale: {x: 1, y: 1, z: 1}
  m_Children: []
  m_Father: {fileID: 4932858909452198}
  m_RootOrder: 0
  m_LocalEulerAnglesHint: {x: 0, y: 0, z: 0}
--- !u!1 &1207879349858262
GameObject:
  m_ObjectHideFlags: 0
  m_CorrespondingSourceObject: {fileID: 0}
  m_PrefabInstance: {fileID: 0}
  m_PrefabAsset: {fileID: 0}
  serializedVersion: 6
  m_Component:
  - component: {fileID: 4265529914067468}
  m_Layer: 0
  m_Name: Neck
  m_TagString: Untagged
  m_Icon: {fileID: 0}
  m_NavMeshLayer: 0
  m_StaticEditorFlags: 0
  m_IsActive: 1
--- !u!4 &4265529914067468
Transform:
  m_ObjectHideFlags: 0
  m_CorrespondingSourceObject: {fileID: 0}
  m_PrefabInstance: {fileID: 0}
  m_PrefabAsset: {fileID: 0}
  m_GameObject: {fileID: 1207879349858262}
  m_LocalRotation: {x: 0.9631089, y: -0.26911193, z: 1.6478353e-17, w: -5.897341e-17}
  m_LocalPosition: {x: -0.177523, y: -2.842171e-16, z: 2.6610966e-10}
  m_LocalScale: {x: 1, y: 1, z: 1}
  m_Children:
  - {fileID: 4932858909452198}
  m_Father: {fileID: 4576326817692418}
  m_RootOrder: 1
  m_LocalEulerAnglesHint: {x: 0, y: 0, z: 0}
--- !u!1 &1226398320724358
GameObject:
  m_ObjectHideFlags: 0
  m_CorrespondingSourceObject: {fileID: 0}
  m_PrefabInstance: {fileID: 0}
  m_PrefabAsset: {fileID: 0}
  serializedVersion: 6
  m_Component:
  - component: {fileID: 4576326817692418}
  m_Layer: 0
  m_Name: Chest
  m_TagString: Untagged
  m_Icon: {fileID: 0}
  m_NavMeshLayer: 0
  m_StaticEditorFlags: 0
  m_IsActive: 1
--- !u!4 &4576326817692418
Transform:
  m_ObjectHideFlags: 0
  m_CorrespondingSourceObject: {fileID: 0}
  m_PrefabInstance: {fileID: 0}
  m_PrefabAsset: {fileID: 0}
  m_GameObject: {fileID: 1226398320724358}
  m_LocalRotation: {x: 3.1378165e-33, y: -5.551116e-17, z: 0.18862787, w: 0.9820487}
  m_LocalPosition: {x: -0.24042004, y: -1.0658141e-16, z: 1.9451508e-16}
  m_LocalScale: {x: 1, y: 1, z: 1}
  m_Children:
  - {fileID: 4154928250372666}
  - {fileID: 4265529914067468}
  - {fileID: 4366149864032364}
  - {fileID: 4286910237292538}
  m_Father: {fileID: 4767384517146274}
  m_RootOrder: 0
  m_LocalEulerAnglesHint: {x: 0, y: 0, z: 0}
--- !u!1 &1242858525862696
GameObject:
  m_ObjectHideFlags: 0
  m_CorrespondingSourceObject: {fileID: 0}
  m_PrefabInstance: {fileID: 0}
  m_PrefabAsset: {fileID: 0}
  serializedVersion: 6
  m_Component:
  - component: {fileID: 4440206237161212}
  m_Layer: 0
  m_Name: Index_Intermediate_Right
  m_TagString: Untagged
  m_Icon: {fileID: 0}
  m_NavMeshLayer: 0
  m_StaticEditorFlags: 0
  m_IsActive: 1
--- !u!4 &4440206237161212
Transform:
  m_ObjectHideFlags: 0
  m_CorrespondingSourceObject: {fileID: 0}
  m_PrefabInstance: {fileID: 0}
  m_PrefabAsset: {fileID: 0}
  m_GameObject: {fileID: 1242858525862696}
  m_LocalRotation: {x: -0.017963478, y: -0.041126773, z: 0.25885317, w: 0.96487355}
  m_LocalPosition: {x: -0.10023805, y: -1.4210854e-15, z: -1.7763568e-17}
  m_LocalScale: {x: 1, y: 1, z: 1}
  m_Children:
  - {fileID: 4947493090804402}
  m_Father: {fileID: 4864853016498246}
  m_RootOrder: 0
  m_LocalEulerAnglesHint: {x: 0, y: 0, z: 0}
--- !u!1 &1251548340774748
GameObject:
  m_ObjectHideFlags: 0
  m_CorrespondingSourceObject: {fileID: 0}
  m_PrefabInstance: {fileID: 0}
  m_PrefabAsset: {fileID: 0}
  serializedVersion: 6
  m_Component:
  - component: {fileID: 4154928250372666}
  m_Layer: 0
  m_Name: BackPack
  m_TagString: Untagged
  m_Icon: {fileID: 0}
  m_NavMeshLayer: 0
  m_StaticEditorFlags: 0
  m_IsActive: 1
--- !u!4 &4154928250372666
Transform:
  m_ObjectHideFlags: 0
  m_CorrespondingSourceObject: {fileID: 0}
  m_PrefabInstance: {fileID: 0}
  m_PrefabAsset: {fileID: 0}
  m_GameObject: {fileID: 1251548340774748}
  m_LocalRotation: {x: -0.3617453, y: 0.5306367, z: 0.3968756, w: 0.6557856}
  m_LocalPosition: {x: -0.10219411, y: -0.38523504, z: 0.0000000010329652}
  m_LocalScale: {x: 1, y: 1, z: 1}
  m_Children:
  - {fileID: 4179306738525998}
  - {fileID: 4596754466478884}
  - {fileID: 4662635638205438}
  m_Father: {fileID: 4576326817692418}
  m_RootOrder: 0
  m_LocalEulerAnglesHint: {x: 0, y: 0, z: 0}
--- !u!1 &1262188457682874
GameObject:
  m_ObjectHideFlags: 0
  m_CorrespondingSourceObject: {fileID: 0}
  m_PrefabInstance: {fileID: 0}
  m_PrefabAsset: {fileID: 0}
  serializedVersion: 6
  m_Component:
  - component: {fileID: 4662635638205438}
  m_Layer: 0
  m_Name: ArmPlacement_Upper
  m_TagString: Untagged
  m_Icon: {fileID: 0}
  m_NavMeshLayer: 0
  m_StaticEditorFlags: 0
  m_IsActive: 1
--- !u!4 &4662635638205438
Transform:
  m_ObjectHideFlags: 0
  m_CorrespondingSourceObject: {fileID: 0}
  m_PrefabInstance: {fileID: 0}
  m_PrefabAsset: {fileID: 0}
  m_GameObject: {fileID: 1262188457682874}
  m_LocalRotation: {x: -0.002378591, y: 0.08787313, z: 0.02695381, w: 0.99576414}
  m_LocalPosition: {x: -0.0056803534, y: 0.4634834, z: 0.109069355}
  m_LocalScale: {x: 1, y: 1, z: 1}
  m_Children: []
  m_Father: {fileID: 4154928250372666}
  m_RootOrder: 2
  m_LocalEulerAnglesHint: {x: 0, y: 0, z: 0}
--- !u!1 &1278358032435672
GameObject:
  m_ObjectHideFlags: 0
  m_CorrespondingSourceObject: {fileID: 0}
  m_PrefabInstance: {fileID: 0}
  m_PrefabAsset: {fileID: 0}
  serializedVersion: 6
  m_Component:
  - component: {fileID: 4406224506356134}
  m_Layer: 0
  m_Name: Thumb_Intermediate_Right
  m_TagString: Untagged
  m_Icon: {fileID: 0}
  m_NavMeshLayer: 0
  m_StaticEditorFlags: 0
  m_IsActive: 1
--- !u!4 &4406224506356134
Transform:
  m_ObjectHideFlags: 0
  m_CorrespondingSourceObject: {fileID: 0}
  m_PrefabInstance: {fileID: 0}
  m_PrefabAsset: {fileID: 0}
  m_GameObject: {fileID: 1278358032435672}
  m_LocalRotation: {x: 0.048999686, y: 0.1354733, z: 0.1004816, w: 0.9844539}
  m_LocalPosition: {x: -0.09836, y: -5.684342e-16, z: -5.684342e-16}
  m_LocalScale: {x: 1, y: 1, z: 1}
  m_Children:
  - {fileID: 4101758752499076}
  m_Father: {fileID: 4006512851812304}
  m_RootOrder: 0
  m_LocalEulerAnglesHint: {x: 0, y: 0, z: 0}
--- !u!1 &1287184092924958
GameObject:
  m_ObjectHideFlags: 0
  m_CorrespondingSourceObject: {fileID: 0}
  m_PrefabInstance: {fileID: 0}
  m_PrefabAsset: {fileID: 0}
  serializedVersion: 6
  m_Component:
  - component: {fileID: 4389953804475430}
  m_Layer: 0
  m_Name: Index_Intermediate_Left
  m_TagString: Untagged
  m_Icon: {fileID: 0}
  m_NavMeshLayer: 0
  m_StaticEditorFlags: 0
  m_IsActive: 1
--- !u!4 &4389953804475430
Transform:
  m_ObjectHideFlags: 0
  m_CorrespondingSourceObject: {fileID: 0}
  m_PrefabInstance: {fileID: 0}
  m_PrefabAsset: {fileID: 0}
  m_GameObject: {fileID: 1287184092924958}
  m_LocalRotation: {x: 0.017964862, y: 0.041127786, z: 0.25889415, w: 0.96486247}
  m_LocalPosition: {x: -0.10023557, y: -1.4210854e-15, z: 8.8817837e-17}
  m_LocalScale: {x: 1, y: 1, z: 1}
  m_Children:
  - {fileID: 4077082529006744}
  m_Father: {fileID: 4578618137329070}
  m_RootOrder: 0
  m_LocalEulerAnglesHint: {x: 0, y: 0, z: 0}
--- !u!1 &1299842459639744
GameObject:
  m_ObjectHideFlags: 0
  m_CorrespondingSourceObject: {fileID: 0}
  m_PrefabInstance: {fileID: 0}
  m_PrefabAsset: {fileID: 0}
  serializedVersion: 6
  m_Component:
  - component: {fileID: 4932858909452198}
  m_Layer: 0
  m_Name: Head
  m_TagString: Untagged
  m_Icon: {fileID: 0}
  m_NavMeshLayer: 0
  m_StaticEditorFlags: 0
  m_IsActive: 1
--- !u!4 &4932858909452198
Transform:
  m_ObjectHideFlags: 0
  m_CorrespondingSourceObject: {fileID: 0}
  m_PrefabInstance: {fileID: 0}
  m_PrefabAsset: {fileID: 0}
  m_GameObject: {fileID: 1299842459639744}
  m_LocalRotation: {x: 0.071218304, y: -0.028954746, z: -0.059960153, w: 0.99523586}
  m_LocalPosition: {x: -0.13255574, y: -1.4210854e-16, z: 7.364747e-17}
  m_LocalScale: {x: 1, y: 1, z: 1}
  m_Children:
  - {fileID: 4329572861923796}
  - {fileID: 4843204777420052}
  m_Father: {fileID: 4265529914067468}
  m_RootOrder: 0
  m_LocalEulerAnglesHint: {x: 0, y: 0, z: 0}
--- !u!1 &1325105674571140
GameObject:
  m_ObjectHideFlags: 0
  m_CorrespondingSourceObject: {fileID: 0}
  m_PrefabInstance: {fileID: 0}
  m_PrefabAsset: {fileID: 0}
  serializedVersion: 6
  m_Component:
  - component: {fileID: 4286910237292538}
  m_Layer: 0
  m_Name: Shoulder_Right
  m_TagString: Untagged
  m_Icon: {fileID: 0}
  m_NavMeshLayer: 0
  m_StaticEditorFlags: 0
  m_IsActive: 1
--- !u!4 &4286910237292538
Transform:
  m_ObjectHideFlags: 0
  m_CorrespondingSourceObject: {fileID: 0}
  m_PrefabInstance: {fileID: 0}
  m_PrefabAsset: {fileID: 0}
  m_GameObject: {fileID: 1325105674571140}
  m_LocalRotation: {x: -0.29884863, y: 0.73412436, z: -0.41826612, w: -0.4436265}
  m_LocalPosition: {x: -0.12348376, y: -0.0629761, z: -0.187061}
  m_LocalScale: {x: 1, y: 1, z: 1}
  m_Children:
  - {fileID: 4096300428845348}
  - {fileID: 4489576988091544}
  m_Father: {fileID: 4576326817692418}
  m_RootOrder: 3
  m_LocalEulerAnglesHint: {x: 0, y: 0, z: 0}
--- !u!1 &1347420085387022
GameObject:
  m_ObjectHideFlags: 0
  m_CorrespondingSourceObject: {fileID: 0}
  m_PrefabInstance: {fileID: 0}
  m_PrefabAsset: {fileID: 0}
  serializedVersion: 6
  m_Component:
  - component: {fileID: 4039510067716268}
  m_Layer: 0
  m_Name: ShoulderPadCTRL_Left
  m_TagString: Untagged
  m_Icon: {fileID: 0}
  m_NavMeshLayer: 0
  m_StaticEditorFlags: 0
  m_IsActive: 1
--- !u!4 &4039510067716268
Transform:
  m_ObjectHideFlags: 0
  m_CorrespondingSourceObject: {fileID: 0}
  m_PrefabInstance: {fileID: 0}
  m_PrefabAsset: {fileID: 0}
  m_GameObject: {fileID: 1347420085387022}
  m_LocalRotation: {x: 0.039328095, y: -0.109450735, z: -0.65068716, w: 0.75038666}
  m_LocalPosition: {x: -0.099388056, y: 0.14657374, z: -0.010394562}
  m_LocalScale: {x: 1, y: 1, z: 1}
  m_Children:
  - {fileID: 4800983036181300}
  - {fileID: 4615783751978818}
  m_Father: {fileID: 4366149864032364}
  m_RootOrder: 0
  m_LocalEulerAnglesHint: {x: 0, y: 0, z: 0}
--- !u!1 &1370679447879166
GameObject:
  m_ObjectHideFlags: 0
  m_CorrespondingSourceObject: {fileID: 0}
  m_PrefabInstance: {fileID: 0}
  m_PrefabAsset: {fileID: 0}
  serializedVersion: 6
  m_Component:
  - component: {fileID: 4206333357611724}
  m_Layer: 0
  m_Name: RestOfFingers_Distal_Right
  m_TagString: Untagged
  m_Icon: {fileID: 0}
  m_NavMeshLayer: 0
  m_StaticEditorFlags: 0
  m_IsActive: 1
--- !u!4 &4206333357611724
Transform:
  m_ObjectHideFlags: 0
  m_CorrespondingSourceObject: {fileID: 0}
  m_PrefabInstance: {fileID: 0}
  m_PrefabAsset: {fileID: 0}
  m_GameObject: {fileID: 1370679447879166}
  m_LocalRotation: {x: 0.0041774614, y: 0.0038508072, z: 0.015434083, w: 0.99986476}
  m_LocalPosition: {x: -0.08174185, y: 2.842171e-16, z: 2.6645352e-17}
  m_LocalScale: {x: 1, y: 1, z: 1}
  m_Children: []
  m_Father: {fileID: 4526359462726868}
  m_RootOrder: 0
  m_LocalEulerAnglesHint: {x: 0, y: 0, z: 0}
--- !u!1 &1398370319199206
GameObject:
  m_ObjectHideFlags: 0
  m_CorrespondingSourceObject: {fileID: 0}
  m_PrefabInstance: {fileID: 0}
  m_PrefabAsset: {fileID: 0}
  serializedVersion: 6
  m_Component:
  - component: {fileID: 4470568240115528}
  m_Layer: 0
  m_Name: UpperArm_Left
  m_TagString: Untagged
  m_Icon: {fileID: 0}
  m_NavMeshLayer: 0
  m_StaticEditorFlags: 0
  m_IsActive: 1
--- !u!4 &4470568240115528
Transform:
  m_ObjectHideFlags: 0
  m_CorrespondingSourceObject: {fileID: 0}
  m_PrefabInstance: {fileID: 0}
  m_PrefabAsset: {fileID: 0}
  m_GameObject: {fileID: 1398370319199206}
  m_LocalRotation: {x: -0.029700447, y: -0.15896967, z: -0.18123563, w: 0.97005165}
  m_LocalPosition: {x: -0.15111847, y: 0, z: -3.7303492e-16}
  m_LocalScale: {x: 1, y: 1, z: 1}
  m_Children:
  - {fileID: 4456058634490908}
  m_Father: {fileID: 4366149864032364}
  m_RootOrder: 1
  m_LocalEulerAnglesHint: {x: 0, y: 0, z: 0}
--- !u!1 &1406468136678704
GameObject:
  m_ObjectHideFlags: 0
  m_CorrespondingSourceObject: {fileID: 0}
  m_PrefabInstance: {fileID: 0}
  m_PrefabAsset: {fileID: 0}
  serializedVersion: 6
  m_Component:
  - component: {fileID: 4077082529006744}
  m_Layer: 0
  m_Name: Index_Distal_Left
  m_TagString: Untagged
  m_Icon: {fileID: 0}
  m_NavMeshLayer: 0
  m_StaticEditorFlags: 0
  m_IsActive: 1
--- !u!4 &4077082529006744
Transform:
  m_ObjectHideFlags: 0
  m_CorrespondingSourceObject: {fileID: 0}
  m_PrefabInstance: {fileID: 0}
  m_PrefabAsset: {fileID: 0}
  m_GameObject: {fileID: 1406468136678704}
  m_LocalRotation: {x: -0.013842603, y: -0.01243883, z: 0.16401216, w: 0.98628277}
  m_LocalPosition: {x: -0.079783425, y: 5.684342e-16, z: -1.7763568e-17}
  m_LocalScale: {x: 1, y: 1, z: 1}
  m_Children: []
  m_Father: {fileID: 4389953804475430}
  m_RootOrder: 0
  m_LocalEulerAnglesHint: {x: 0, y: 0, z: 0}
--- !u!1 &1426113956497454
GameObject:
  m_ObjectHideFlags: 0
  m_CorrespondingSourceObject: {fileID: 0}
  m_PrefabInstance: {fileID: 0}
  m_PrefabAsset: {fileID: 0}
  serializedVersion: 6
  m_Component:
  - component: {fileID: 4072028953399544}
  m_Layer: 0
  m_Name: LowerArm_Right
  m_TagString: Untagged
  m_Icon: {fileID: 0}
  m_NavMeshLayer: 0
  m_StaticEditorFlags: 0
  m_IsActive: 1
--- !u!4 &4072028953399544
Transform:
  m_ObjectHideFlags: 0
  m_CorrespondingSourceObject: {fileID: 0}
  m_PrefabInstance: {fileID: 0}
  m_PrefabAsset: {fileID: 0}
  m_GameObject: {fileID: 1426113956497454}
  m_LocalRotation: {x: 4.9720758e-29, y: -0.049585804, z: 1.0024346e-27, w: 0.9987699}
  m_LocalPosition: {x: -0.33666927, y: 0, z: -1.4432899e-17}
  m_LocalScale: {x: 1, y: 1, z: 1}
  m_Children:
  - {fileID: 4351849754679398}
  m_Father: {fileID: 4489576988091544}
  m_RootOrder: 0
  m_LocalEulerAnglesHint: {x: 0, y: 0, z: 0}
--- !u!1 &1447520117365282
GameObject:
  m_ObjectHideFlags: 0
  m_CorrespondingSourceObject: {fileID: 0}
  m_PrefabInstance: {fileID: 0}
  m_PrefabAsset: {fileID: 0}
  serializedVersion: 6
  m_Component:
  - component: {fileID: 4589171139438602}
  m_Layer: 0
  m_Name: ShoulderPadBlade_Right
  m_TagString: Untagged
  m_Icon: {fileID: 0}
  m_NavMeshLayer: 0
  m_StaticEditorFlags: 0
  m_IsActive: 1
--- !u!4 &4589171139438602
Transform:
  m_ObjectHideFlags: 0
  m_CorrespondingSourceObject: {fileID: 0}
  m_PrefabInstance: {fileID: 0}
  m_PrefabAsset: {fileID: 0}
  m_GameObject: {fileID: 1447520117365282}
  m_LocalRotation: {x: -0.0066352007, y: 0.011333432, z: 0.50519216, w: 0.86290693}
  m_LocalPosition: {x: -0.13296814, y: -0.22177005, z: 0.005073527}
  m_LocalScale: {x: 1, y: 1, z: 1}
  m_Children: []
  m_Father: {fileID: 4096300428845348}
  m_RootOrder: 0
  m_LocalEulerAnglesHint: {x: 0, y: 0, z: 0}
--- !u!1 &1479024203574798
GameObject:
  m_ObjectHideFlags: 0
  m_CorrespondingSourceObject: {fileID: 0}
  m_PrefabInstance: {fileID: 0}
  m_PrefabAsset: {fileID: 0}
  serializedVersion: 6
  m_Component:
  - component: {fileID: 4578618137329070}
  m_Layer: 0
  m_Name: Index_Proximal_Left
  m_TagString: Untagged
  m_Icon: {fileID: 0}
  m_NavMeshLayer: 0
  m_StaticEditorFlags: 0
  m_IsActive: 1
--- !u!4 &4578618137329070
Transform:
  m_ObjectHideFlags: 0
  m_CorrespondingSourceObject: {fileID: 0}
  m_PrefabInstance: {fileID: 0}
  m_PrefabAsset: {fileID: 0}
  m_GameObject: {fileID: 1479024203574798}
  m_LocalRotation: {x: 0.0028642316, y: 0.04212831, z: 0.08163239, w: 0.9957676}
  m_LocalPosition: {x: -0.13357444, y: -0.00091447134, z: 0.13440093}
  m_LocalScale: {x: 1, y: 1, z: 1}
  m_Children:
  - {fileID: 4389953804475430}
  m_Father: {fileID: 4871742413835510}
  m_RootOrder: 0
  m_LocalEulerAnglesHint: {x: 0, y: 0, z: 0}
--- !u!1 &1483712927677152
GameObject:
  m_ObjectHideFlags: 0
  m_CorrespondingSourceObject: {fileID: 0}
  m_PrefabInstance: {fileID: 0}
  m_PrefabAsset: {fileID: 0}
  serializedVersion: 6
  m_Component:
  - component: {fileID: 4368840417456198}
  m_Layer: 0
  m_Name: ShoulderPadBody_Right
  m_TagString: Untagged
  m_Icon: {fileID: 0}
  m_NavMeshLayer: 0
  m_StaticEditorFlags: 0
  m_IsActive: 1
--- !u!4 &4368840417456198
Transform:
  m_ObjectHideFlags: 0
  m_CorrespondingSourceObject: {fileID: 0}
  m_PrefabInstance: {fileID: 0}
  m_PrefabAsset: {fileID: 0}
  m_GameObject: {fileID: 1483712927677152}
  m_LocalRotation: {x: -0.0066352007, y: 0.011333432, z: 0.50519216, w: 0.86290693}
  m_LocalPosition: {x: -0.1602375, y: -6.3948843e-16, z: 1.2878587e-16}
  m_LocalScale: {x: 1, y: 1, z: 1}
  m_Children: []
  m_Father: {fileID: 4096300428845348}
  m_RootOrder: 1
  m_LocalEulerAnglesHint: {x: 0, y: 0, z: 0}
--- !u!1 &1490529250427808
GameObject:
  m_ObjectHideFlags: 0
  m_CorrespondingSourceObject: {fileID: 0}
  m_PrefabInstance: {fileID: 0}
  m_PrefabAsset: {fileID: 0}
  serializedVersion: 6
  m_Component:
  - component: {fileID: 4106520695970086}
  m_Layer: 0
  m_Name: LowerLeg_Right
  m_TagString: Untagged
  m_Icon: {fileID: 0}
  m_NavMeshLayer: 0
  m_StaticEditorFlags: 0
  m_IsActive: 1
--- !u!4 &4106520695970086
Transform:
  m_ObjectHideFlags: 0
  m_CorrespondingSourceObject: {fileID: 0}
  m_PrefabInstance: {fileID: 0}
  m_PrefabAsset: {fileID: 0}
  m_GameObject: {fileID: 1490529250427808}
  m_LocalRotation: {x: 0.66088396, y: 0.05163587, z: -0.04218814, w: 0.74752015}
  m_LocalPosition: {x: -0.33437312, y: 4.973799e-16, z: -8.8817837e-17}
  m_LocalScale: {x: 1, y: 1, z: 1}
  m_Children:
  - {fileID: 4460367585722266}
  m_Father: {fileID: 4088755167668274}
  m_RootOrder: 0
  m_LocalEulerAnglesHint: {x: 0, y: 0, z: 0}
--- !u!1 &1520915394727350
GameObject:
  m_ObjectHideFlags: 0
  m_CorrespondingSourceObject: {fileID: 0}
  m_PrefabInstance: {fileID: 0}
  m_PrefabAsset: {fileID: 0}
  serializedVersion: 6
  m_Component:
  - component: {fileID: 4674408266398956}
  - component: {fileID: 137568464050668770}
  m_Layer: 0
  m_Name: Backpack1
  m_TagString: Untagged
  m_Icon: {fileID: 0}
  m_NavMeshLayer: 0
  m_StaticEditorFlags: 0
  m_IsActive: 1
--- !u!4 &4674408266398956
Transform:
  m_ObjectHideFlags: 0
  m_CorrespondingSourceObject: {fileID: 0}
  m_PrefabInstance: {fileID: 0}
  m_PrefabAsset: {fileID: 0}
  m_GameObject: {fileID: 1520915394727350}
  m_LocalRotation: {x: 0, y: -0, z: -0, w: 1}
  m_LocalPosition: {x: -0, y: 0, z: 0}
  m_LocalScale: {x: 1, y: 1, z: 1}
  m_Children: []
  m_Father: {fileID: 4461509016300196}
  m_RootOrder: 2
  m_LocalEulerAnglesHint: {x: 0, y: 0, z: 0}
--- !u!137 &137568464050668770
SkinnedMeshRenderer:
  m_ObjectHideFlags: 0
  m_CorrespondingSourceObject: {fileID: 0}
  m_PrefabInstance: {fileID: 0}
  m_PrefabAsset: {fileID: 0}
  m_GameObject: {fileID: 1520915394727350}
  m_Enabled: 1
  m_CastShadows: 1
  m_ReceiveShadows: 1
  m_DynamicOccludee: 1
  m_MotionVectors: 1
  m_LightProbeUsage: 1
  m_ReflectionProbeUsage: 1
  m_RenderingLayerMask: 1
  m_RendererPriority: 0
  m_Materials:
  - {fileID: 2100000, guid: 1666fb81395f51e4293b01cca8f58481, type: 2}
  m_StaticBatchInfo:
    firstSubMesh: 0
    subMeshCount: 0
  m_StaticBatchRoot: {fileID: 0}
  m_ProbeAnchor: {fileID: 0}
  m_LightProbeVolumeOverride: {fileID: 0}
  m_ScaleInLightmap: 1
  m_PreserveUVs: 0
  m_IgnoreNormalsForChartDetection: 0
  m_ImportantGI: 0
  m_StitchLightmapSeams: 0
  m_SelectedEditorRenderState: 3
  m_MinimumChartSize: 4
  m_AutoUVMaxDistance: 0.5
  m_AutoUVMaxAngle: 89
  m_LightmapParameters: {fileID: 0}
  m_SortingLayerID: 0
  m_SortingLayer: 0
  m_SortingOrder: 0
  serializedVersion: 2
  m_Quality: 0
  m_UpdateWhenOffscreen: 0
  m_SkinnedMotionVectors: 1
  m_Mesh: {fileID: 4300004, guid: 4d1a7012e497b5645b59962f4f76af8f, type: 3}
  m_Bones:
  - {fileID: 4155302749411800}
  - {fileID: 4767384517146274}
  - {fileID: 4576326817692418}
  - {fileID: 4265529914067468}
  - {fileID: 4932858909452198}
  - {fileID: 4329572861923796}
  - {fileID: 4843204777420052}
  - {fileID: 4366149864032364}
  - {fileID: 4470568240115528}
  - {fileID: 4456058634490908}
  - {fileID: 4871742413835510}
  - {fileID: 4854802934796946}
  - {fileID: 4390648618449408}
  - {fileID: 4457406632358866}
  - {fileID: 4578618137329070}
  - {fileID: 4389953804475430}
  - {fileID: 4077082529006744}
  - {fileID: 4809867879811190}
  - {fileID: 4176839478663502}
  - {fileID: 4643318649315900}
  - {fileID: 4039510067716268}
  - {fileID: 4615783751978818}
  - {fileID: 4800983036181300}
  - {fileID: 4286910237292538}
  - {fileID: 4489576988091544}
  - {fileID: 4072028953399544}
  - {fileID: 4351849754679398}
  - {fileID: 4071872300658134}
  - {fileID: 4526359462726868}
  - {fileID: 4206333357611724}
  - {fileID: 4864853016498246}
  - {fileID: 4440206237161212}
  - {fileID: 4947493090804402}
  - {fileID: 4006512851812304}
  - {fileID: 4406224506356134}
  - {fileID: 4101758752499076}
  - {fileID: 4096300428845348}
  - {fileID: 4368840417456198}
  - {fileID: 4589171139438602}
  - {fileID: 4154928250372666}
  - {fileID: 4179306738525998}
  - {fileID: 4662635638205438}
  - {fileID: 4596754466478884}
  - {fileID: 4743861860367394}
  - {fileID: 4268404377392276}
  - {fileID: 4765476893222964}
  - {fileID: 4735963518054312}
  - {fileID: 4294564499881050}
  - {fileID: 4088755167668274}
  - {fileID: 4106520695970086}
  - {fileID: 4460367585722266}
  - {fileID: 4897548536715478}
  - {fileID: 4830185290988036}
  - {fileID: 4755017300832772}
  - {fileID: 4634360491792354}
  - {fileID: 4752124052192574}
  - {fileID: 4158355576759758}
  m_BlendShapeWeights: []
  m_RootBone: {fileID: 4155302749411800}
  m_AABB:
    m_Center: {x: -0.2889943, y: 0.447699, z: -0.01571849}
    m_Extent: {x: 0.4782257, y: 0.32293832, z: 0.42822284}
  m_DirtyAABB: 0
--- !u!1 &1523001655727062
GameObject:
  m_ObjectHideFlags: 0
  m_CorrespondingSourceObject: {fileID: 0}
  m_PrefabInstance: {fileID: 0}
  m_PrefabAsset: {fileID: 0}
  serializedVersion: 6
  m_Component:
  - component: {fileID: 4470283264474244}
  - component: {fileID: 137881537968820136}
  m_Layer: 0
  m_Name: head1
  m_TagString: Untagged
  m_Icon: {fileID: 0}
  m_NavMeshLayer: 0
  m_StaticEditorFlags: 0
  m_IsActive: 1
--- !u!4 &4470283264474244
Transform:
  m_ObjectHideFlags: 0
  m_CorrespondingSourceObject: {fileID: 0}
  m_PrefabInstance: {fileID: 0}
  m_PrefabAsset: {fileID: 0}
  m_GameObject: {fileID: 1523001655727062}
  m_LocalRotation: {x: 0, y: -0, z: -0, w: 1}
  m_LocalPosition: {x: -0, y: 0, z: 0}
  m_LocalScale: {x: 1, y: 1, z: 1}
  m_Children: []
  m_Father: {fileID: 4461509016300196}
  m_RootOrder: 4
  m_LocalEulerAnglesHint: {x: 0, y: 0, z: 0}
--- !u!137 &137881537968820136
SkinnedMeshRenderer:
  m_ObjectHideFlags: 0
  m_CorrespondingSourceObject: {fileID: 0}
  m_PrefabInstance: {fileID: 0}
  m_PrefabAsset: {fileID: 0}
  m_GameObject: {fileID: 1523001655727062}
  m_Enabled: 1
  m_CastShadows: 1
  m_ReceiveShadows: 1
  m_DynamicOccludee: 1
  m_MotionVectors: 1
  m_LightProbeUsage: 1
  m_ReflectionProbeUsage: 1
  m_RenderingLayerMask: 1
  m_RendererPriority: 0
  m_Materials:
  - {fileID: 2100000, guid: 1666fb81395f51e4293b01cca8f58481, type: 2}
  m_StaticBatchInfo:
    firstSubMesh: 0
    subMeshCount: 0
  m_StaticBatchRoot: {fileID: 0}
  m_ProbeAnchor: {fileID: 0}
  m_LightProbeVolumeOverride: {fileID: 0}
  m_ScaleInLightmap: 1
  m_PreserveUVs: 0
  m_IgnoreNormalsForChartDetection: 0
  m_ImportantGI: 0
  m_StitchLightmapSeams: 0
  m_SelectedEditorRenderState: 3
  m_MinimumChartSize: 4
  m_AutoUVMaxDistance: 0.5
  m_AutoUVMaxAngle: 89
  m_LightmapParameters: {fileID: 0}
  m_SortingLayerID: 0
  m_SortingLayer: 0
  m_SortingOrder: 0
  serializedVersion: 2
  m_Quality: 0
  m_UpdateWhenOffscreen: 0
  m_SkinnedMotionVectors: 1
  m_Mesh: {fileID: 4300000, guid: 4d1a7012e497b5645b59962f4f76af8f, type: 3}
  m_Bones:
  - {fileID: 4155302749411800}
  - {fileID: 4767384517146274}
  - {fileID: 4576326817692418}
  - {fileID: 4265529914067468}
  - {fileID: 4932858909452198}
  - {fileID: 4329572861923796}
  - {fileID: 4843204777420052}
  - {fileID: 4366149864032364}
  - {fileID: 4470568240115528}
  - {fileID: 4456058634490908}
  - {fileID: 4871742413835510}
  - {fileID: 4854802934796946}
  - {fileID: 4390648618449408}
  - {fileID: 4457406632358866}
  - {fileID: 4578618137329070}
  - {fileID: 4389953804475430}
  - {fileID: 4077082529006744}
  - {fileID: 4809867879811190}
  - {fileID: 4176839478663502}
  - {fileID: 4643318649315900}
  - {fileID: 4039510067716268}
  - {fileID: 4615783751978818}
  - {fileID: 4800983036181300}
  - {fileID: 4286910237292538}
  - {fileID: 4489576988091544}
  - {fileID: 4072028953399544}
  - {fileID: 4351849754679398}
  - {fileID: 4071872300658134}
  - {fileID: 4526359462726868}
  - {fileID: 4206333357611724}
  - {fileID: 4864853016498246}
  - {fileID: 4440206237161212}
  - {fileID: 4947493090804402}
  - {fileID: 4006512851812304}
  - {fileID: 4406224506356134}
  - {fileID: 4101758752499076}
  - {fileID: 4096300428845348}
  - {fileID: 4368840417456198}
  - {fileID: 4589171139438602}
  - {fileID: 4154928250372666}
  - {fileID: 4179306738525998}
  - {fileID: 4662635638205438}
  - {fileID: 4596754466478884}
  - {fileID: 4743861860367394}
  - {fileID: 4268404377392276}
  - {fileID: 4765476893222964}
  - {fileID: 4735963518054312}
  - {fileID: 4294564499881050}
  - {fileID: 4088755167668274}
  - {fileID: 4106520695970086}
  - {fileID: 4460367585722266}
  - {fileID: 4897548536715478}
  - {fileID: 4830185290988036}
  - {fileID: 4755017300832772}
  - {fileID: 4634360491792354}
  - {fileID: 4752124052192574}
  - {fileID: 4158355576759758}
  m_BlendShapeWeights: []
  m_RootBone: {fileID: 4155302749411800}
  m_AABB:
    m_Center: {x: -0.71523285, y: 0.10616151, z: -0.010935709}
    m_Extent: {x: 0.2651363, y: 0.26529357, z: 0.17550735}
  m_DirtyAABB: 0
--- !u!1 &1548422448619160
GameObject:
  m_ObjectHideFlags: 0
  m_CorrespondingSourceObject: {fileID: 0}
  m_PrefabInstance: {fileID: 0}
  m_PrefabAsset: {fileID: 0}
  serializedVersion: 6
  m_Component:
  - component: {fileID: 4071872300658134}
  m_Layer: 0
  m_Name: RestOfFingers_Proximal_Right
  m_TagString: Untagged
  m_Icon: {fileID: 0}
  m_NavMeshLayer: 0
  m_StaticEditorFlags: 0
  m_IsActive: 1
--- !u!4 &4071872300658134
Transform:
  m_ObjectHideFlags: 0
  m_CorrespondingSourceObject: {fileID: 0}
  m_PrefabInstance: {fileID: 0}
  m_PrefabAsset: {fileID: 0}
  m_GameObject: {fileID: 1548422448619160}
  m_LocalRotation: {x: -0.0028322286, y: -0.060177784, z: 0.060808677, w: 0.9963297}
  m_LocalPosition: {x: -0.18094389, y: 8.5265126e-16, z: -1.0658141e-16}
  m_LocalScale: {x: 1, y: 1, z: 1}
  m_Children:
  - {fileID: 4526359462726868}
  m_Father: {fileID: 4351849754679398}
  m_RootOrder: 1
  m_LocalEulerAnglesHint: {x: 0, y: 0, z: 0}
--- !u!1 &1567225976864954
GameObject:
  m_ObjectHideFlags: 0
  m_CorrespondingSourceObject: {fileID: 0}
  m_PrefabInstance: {fileID: 0}
  m_PrefabAsset: {fileID: 0}
  serializedVersion: 6
  m_Component:
  - component: {fileID: 4045728069165238}
  - component: {fileID: 137334753274068414}
  m_Layer: 0
  m_Name: Arm1
  m_TagString: Untagged
  m_Icon: {fileID: 0}
  m_NavMeshLayer: 0
  m_StaticEditorFlags: 0
  m_IsActive: 1
--- !u!4 &4045728069165238
Transform:
  m_ObjectHideFlags: 0
  m_CorrespondingSourceObject: {fileID: 0}
  m_PrefabInstance: {fileID: 0}
  m_PrefabAsset: {fileID: 0}
  m_GameObject: {fileID: 1567225976864954}
  m_LocalRotation: {x: 0, y: -0, z: -0, w: 1}
  m_LocalPosition: {x: -0, y: 0, z: 0}
  m_LocalScale: {x: 1, y: 1, z: 1}
  m_Children: []
  m_Father: {fileID: 4461509016300196}
  m_RootOrder: 0
  m_LocalEulerAnglesHint: {x: 0, y: 0, z: 0}
--- !u!137 &137334753274068414
SkinnedMeshRenderer:
  m_ObjectHideFlags: 0
  m_CorrespondingSourceObject: {fileID: 0}
  m_PrefabInstance: {fileID: 0}
  m_PrefabAsset: {fileID: 0}
  m_GameObject: {fileID: 1567225976864954}
  m_Enabled: 1
  m_CastShadows: 1
  m_ReceiveShadows: 1
  m_DynamicOccludee: 1
  m_MotionVectors: 1
  m_LightProbeUsage: 1
  m_ReflectionProbeUsage: 1
  m_RenderingLayerMask: 1
  m_RendererPriority: 0
  m_Materials:
  - {fileID: 2100000, guid: 1666fb81395f51e4293b01cca8f58481, type: 2}
  m_StaticBatchInfo:
    firstSubMesh: 0
    subMeshCount: 0
  m_StaticBatchRoot: {fileID: 0}
  m_ProbeAnchor: {fileID: 0}
  m_LightProbeVolumeOverride: {fileID: 0}
  m_ScaleInLightmap: 1
  m_PreserveUVs: 0
  m_IgnoreNormalsForChartDetection: 0
  m_ImportantGI: 0
  m_StitchLightmapSeams: 0
  m_SelectedEditorRenderState: 3
  m_MinimumChartSize: 4
  m_AutoUVMaxDistance: 0.5
  m_AutoUVMaxAngle: 89
  m_LightmapParameters: {fileID: 0}
  m_SortingLayerID: 0
  m_SortingLayer: 0
  m_SortingOrder: 0
  serializedVersion: 2
  m_Quality: 0
  m_UpdateWhenOffscreen: 0
  m_SkinnedMotionVectors: 1
  m_Mesh: {fileID: 4300006, guid: 4d1a7012e497b5645b59962f4f76af8f, type: 3}
  m_Bones:
  - {fileID: 4155302749411800}
  - {fileID: 4767384517146274}
  - {fileID: 4576326817692418}
  - {fileID: 4265529914067468}
  - {fileID: 4932858909452198}
  - {fileID: 4329572861923796}
  - {fileID: 4843204777420052}
  - {fileID: 4366149864032364}
  - {fileID: 4470568240115528}
  - {fileID: 4456058634490908}
  - {fileID: 4871742413835510}
  - {fileID: 4854802934796946}
  - {fileID: 4390648618449408}
  - {fileID: 4457406632358866}
  - {fileID: 4578618137329070}
  - {fileID: 4389953804475430}
  - {fileID: 4077082529006744}
  - {fileID: 4809867879811190}
  - {fileID: 4176839478663502}
  - {fileID: 4643318649315900}
  - {fileID: 4039510067716268}
  - {fileID: 4615783751978818}
  - {fileID: 4800983036181300}
  - {fileID: 4286910237292538}
  - {fileID: 4489576988091544}
  - {fileID: 4072028953399544}
  - {fileID: 4351849754679398}
  - {fileID: 4071872300658134}
  - {fileID: 4526359462726868}
  - {fileID: 4206333357611724}
  - {fileID: 4864853016498246}
  - {fileID: 4440206237161212}
  - {fileID: 4947493090804402}
  - {fileID: 4006512851812304}
  - {fileID: 4406224506356134}
  - {fileID: 4101758752499076}
  - {fileID: 4096300428845348}
  - {fileID: 4368840417456198}
  - {fileID: 4589171139438602}
  - {fileID: 4154928250372666}
  - {fileID: 4179306738525998}
  - {fileID: 4662635638205438}
  - {fileID: 4596754466478884}
  - {fileID: 4743861860367394}
  - {fileID: 4268404377392276}
  - {fileID: 4765476893222964}
  - {fileID: 4735963518054312}
  - {fileID: 4294564499881050}
  - {fileID: 4088755167668274}
  - {fileID: 4106520695970086}
  - {fileID: 4460367585722266}
  - {fileID: 4897548536715478}
  - {fileID: 4830185290988036}
  - {fileID: 4755017300832772}
  - {fileID: 4634360491792354}
  - {fileID: 4752124052192574}
  - {fileID: 4158355576759758}
  m_BlendShapeWeights: []
  m_RootBone: {fileID: 4155302749411800}
  m_AABB:
    m_Center: {x: -0.58594686, y: 0.13632675, z: 0.0000011324883}
    m_Extent: {x: 0.29436272, y: 0.28906912, z: 1.4037483}
  m_DirtyAABB: 0
--- !u!1 &1609714559960736
GameObject:
  m_ObjectHideFlags: 0
  m_CorrespondingSourceObject: {fileID: 0}
  m_PrefabInstance: {fileID: 0}
  m_PrefabAsset: {fileID: 0}
  serializedVersion: 6
  m_Component:
  - component: {fileID: 4767384517146274}
  m_Layer: 0
  m_Name: Spine
  m_TagString: Untagged
  m_Icon: {fileID: 0}
  m_NavMeshLayer: 0
  m_StaticEditorFlags: 0
  m_IsActive: 1
--- !u!4 &4767384517146274
Transform:
  m_ObjectHideFlags: 0
  m_CorrespondingSourceObject: {fileID: 0}
  m_PrefabInstance: {fileID: 0}
  m_PrefabAsset: {fileID: 0}
  m_GameObject: {fileID: 1609714559960736}
  m_LocalRotation: {x: 0.99452215, y: -0.104526356, z: -7.7878193e-10, w: 0.0000000074097675}
  m_LocalPosition: {x: -0.21090727, y: -8.8817837e-17, z: -4.4013776e-18}
  m_LocalScale: {x: 1, y: 1, z: 1}
  m_Children:
  - {fileID: 4576326817692418}
  m_Father: {fileID: 4155302749411800}
  m_RootOrder: 2
  m_LocalEulerAnglesHint: {x: 0, y: 0, z: 0}
--- !u!1 &1611558208135412
GameObject:
  m_ObjectHideFlags: 0
  m_CorrespondingSourceObject: {fileID: 0}
  m_PrefabInstance: {fileID: 0}
  m_PrefabAsset: {fileID: 0}
  serializedVersion: 6
  m_Component:
  - component: {fileID: 4088755167668274}
  m_Layer: 0
  m_Name: UpperLeg_Right
  m_TagString: Untagged
  m_Icon: {fileID: 0}
  m_NavMeshLayer: 0
  m_StaticEditorFlags: 0
  m_IsActive: 1
--- !u!4 &4088755167668274
Transform:
  m_ObjectHideFlags: 0
  m_CorrespondingSourceObject: {fileID: 0}
  m_PrefabInstance: {fileID: 0}
  m_PrefabAsset: {fileID: 0}
  m_GameObject: {fileID: 1611558208135412}
  m_LocalRotation: {x: 0.03061261, y: 0.6954094, z: 0.7139454, w: 0.07583304}
  m_LocalPosition: {x: 0.00084786385, y: 0.0040212916, z: 0.188642}
  m_LocalScale: {x: 1, y: 1, z: 1}
  m_Children:
  - {fileID: 4106520695970086}
  m_Father: {fileID: 4155302749411800}
  m_RootOrder: 4
  m_LocalEulerAnglesHint: {x: 0, y: 0, z: 0}
--- !u!1 &1617514060095560
GameObject:
  m_ObjectHideFlags: 0
  m_CorrespondingSourceObject: {fileID: 0}
  m_PrefabInstance: {fileID: 0}
  m_PrefabAsset: {fileID: 0}
  serializedVersion: 6
  m_Component:
  - component: {fileID: 4101758752499076}
  m_Layer: 0
  m_Name: Thumb_Distal_Right
  m_TagString: Untagged
  m_Icon: {fileID: 0}
  m_NavMeshLayer: 0
  m_StaticEditorFlags: 0
  m_IsActive: 1
--- !u!4 &4101758752499076
Transform:
  m_ObjectHideFlags: 0
  m_CorrespondingSourceObject: {fileID: 0}
  m_PrefabInstance: {fileID: 0}
  m_PrefabAsset: {fileID: 0}
  m_GameObject: {fileID: 1617514060095560}
  m_LocalRotation: {x: 0.0017341404, y: 0.008320127, z: -0.005799853, w: 0.9999471}
  m_LocalPosition: {x: -0.08816269, y: 0, z: -1.4210854e-16}
  m_LocalScale: {x: 1, y: 1, z: 1}
  m_Children: []
  m_Father: {fileID: 4406224506356134}
  m_RootOrder: 0
  m_LocalEulerAnglesHint: {x: 0, y: 0, z: 0}
--- !u!1 &1617565314516482
GameObject:
  m_ObjectHideFlags: 0
  m_CorrespondingSourceObject: {fileID: 0}
  m_PrefabInstance: {fileID: 0}
  m_PrefabAsset: {fileID: 0}
  serializedVersion: 6
  m_Component:
  - component: {fileID: 4268404377392276}
  m_Layer: 0
  m_Name: LowerLeg_Left
  m_TagString: Untagged
  m_Icon: {fileID: 0}
  m_NavMeshLayer: 0
  m_StaticEditorFlags: 0
  m_IsActive: 1
--- !u!4 &4268404377392276
Transform:
  m_ObjectHideFlags: 0
  m_CorrespondingSourceObject: {fileID: 0}
  m_PrefabInstance: {fileID: 0}
  m_PrefabAsset: {fileID: 0}
  m_GameObject: {fileID: 1617565314516482}
  m_LocalRotation: {x: -0.6640286, y: -0.051458772, z: -0.042404156, w: 0.74472815}
  m_LocalPosition: {x: -0.33436847, y: -2.4868996e-16, z: 6.217249e-17}
  m_LocalScale: {x: 1, y: 1, z: 1}
  m_Children:
  - {fileID: 4765476893222964}
  m_Father: {fileID: 4743861860367394}
  m_RootOrder: 0
  m_LocalEulerAnglesHint: {x: 0, y: 0, z: 0}
--- !u!1 &1638689067701268
GameObject:
  m_ObjectHideFlags: 0
  m_CorrespondingSourceObject: {fileID: 0}
  m_PrefabInstance: {fileID: 0}
  m_PrefabAsset: {fileID: 0}
  serializedVersion: 6
  m_Component:
  - component: {fileID: 4155302749411800}
  m_Layer: 0
  m_Name: Hips
  m_TagString: Untagged
  m_Icon: {fileID: 0}
  m_NavMeshLayer: 0
  m_StaticEditorFlags: 0
  m_IsActive: 1
--- !u!4 &4155302749411800
Transform:
  m_ObjectHideFlags: 0
  m_CorrespondingSourceObject: {fileID: 0}
  m_PrefabInstance: {fileID: 0}
  m_PrefabAsset: {fileID: 0}
  m_GameObject: {fileID: 1638689067701268}
  m_LocalRotation: {x: -0.4582423, y: 0.5385295, z: -0.4582423, w: 0.5385295}
  m_LocalPosition: {x: -0, y: 1.0650933, z: 0.038611155}
  m_LocalScale: {x: 1, y: 1, z: 1}
  m_Children:
  - {fileID: 4158355576759758}
  - {fileID: 4755017300832772}
  - {fileID: 4767384517146274}
  - {fileID: 4743861860367394}
  - {fileID: 4088755167668274}
  m_Father: {fileID: 4461509016300196}
  m_RootOrder: 5
  m_LocalEulerAnglesHint: {x: 0, y: 0, z: 0}
--- !u!1 &1660872643869616
GameObject:
  m_ObjectHideFlags: 0
  m_CorrespondingSourceObject: {fileID: 0}
  m_PrefabInstance: {fileID: 0}
  m_PrefabAsset: {fileID: 0}
  serializedVersion: 6
  m_Component:
  - component: {fileID: 4351849754679398}
  m_Layer: 0
  m_Name: Hand_Right
  m_TagString: Untagged
  m_Icon: {fileID: 0}
  m_NavMeshLayer: 0
  m_StaticEditorFlags: 0
  m_IsActive: 1
--- !u!4 &4351849754679398
Transform:
  m_ObjectHideFlags: 0
  m_CorrespondingSourceObject: {fileID: 0}
  m_PrefabInstance: {fileID: 0}
  m_PrefabAsset: {fileID: 0}
  m_GameObject: {fileID: 1660872643869616}
  m_LocalRotation: {x: -0.0005926622, y: 0.085287675, z: -0.0069382307, w: 0.99633205}
  m_LocalPosition: {x: -0.37441412, y: 1.7053025e-15, z: -5.3290704e-17}
  m_LocalScale: {x: 1, y: 1, z: 1}
  m_Children:
  - {fileID: 4864853016498246}
  - {fileID: 4071872300658134}
  - {fileID: 4006512851812304}
  m_Father: {fileID: 4072028953399544}
  m_RootOrder: 0
  m_LocalEulerAnglesHint: {x: 0, y: 0, z: 0}
--- !u!1 &1680933210970034
GameObject:
  m_ObjectHideFlags: 0
  m_CorrespondingSourceObject: {fileID: 0}
  m_PrefabInstance: {fileID: 0}
  m_PrefabAsset: {fileID: 0}
  serializedVersion: 6
  m_Component:
  - component: {fileID: 4489576988091544}
  m_Layer: 0
  m_Name: UpperArm_Right
  m_TagString: Untagged
  m_Icon: {fileID: 0}
  m_NavMeshLayer: 0
  m_StaticEditorFlags: 0
  m_IsActive: 1
--- !u!4 &4489576988091544
Transform:
  m_ObjectHideFlags: 0
  m_CorrespondingSourceObject: {fileID: 0}
  m_PrefabInstance: {fileID: 0}
  m_PrefabAsset: {fileID: 0}
  m_GameObject: {fileID: 1680933210970034}
  m_LocalRotation: {x: 0.029697837, y: 0.15896995, z: -0.18122736, w: 0.97005326}
  m_LocalPosition: {x: -0.15111768, y: 0, z: -3.1974422e-16}
  m_LocalScale: {x: 1, y: 1, z: 1}
  m_Children:
  - {fileID: 4072028953399544}
  m_Father: {fileID: 4286910237292538}
  m_RootOrder: 1
  m_LocalEulerAnglesHint: {x: 0, y: 0, z: 0}
--- !u!1 &1698476028460462
GameObject:
  m_ObjectHideFlags: 0
  m_CorrespondingSourceObject: {fileID: 0}
  m_PrefabInstance: {fileID: 0}
  m_PrefabAsset: {fileID: 0}
  serializedVersion: 6
  m_Component:
  - component: {fileID: 4615783751978818}
  m_Layer: 0
  m_Name: ShoulderPadBody_Left
  m_TagString: Untagged
  m_Icon: {fileID: 0}
  m_NavMeshLayer: 0
  m_StaticEditorFlags: 0
  m_IsActive: 1
--- !u!4 &4615783751978818
Transform:
  m_ObjectHideFlags: 0
  m_CorrespondingSourceObject: {fileID: 0}
  m_PrefabInstance: {fileID: 0}
  m_PrefabAsset: {fileID: 0}
  m_GameObject: {fileID: 1698476028460462}
  m_LocalRotation: {x: 0.0066350633, y: -0.011333145, z: 0.5051939, w: 0.862906}
  m_LocalPosition: {x: -0.16023824, y: -1.4210854e-16, z: 2.6645352e-17}
  m_LocalScale: {x: 1, y: 1, z: 1}
  m_Children: []
  m_Father: {fileID: 4039510067716268}
  m_RootOrder: 1
  m_LocalEulerAnglesHint: {x: 0, y: 0, z: 0}
--- !u!1 &1718881883565482
GameObject:
  m_ObjectHideFlags: 0
  m_CorrespondingSourceObject: {fileID: 0}
  m_PrefabInstance: {fileID: 0}
  m_PrefabAsset: {fileID: 0}
  serializedVersion: 6
  m_Component:
  - component: {fileID: 4755017300832772}
  m_Layer: 0
  m_Name: ArmPosition_Right
  m_TagString: Untagged
  m_Icon: {fileID: 0}
  m_NavMeshLayer: 0
  m_StaticEditorFlags: 0
  m_IsActive: 1
--- !u!4 &4755017300832772
Transform:
  m_ObjectHideFlags: 0
  m_CorrespondingSourceObject: {fileID: 0}
  m_PrefabInstance: {fileID: 0}
  m_PrefabAsset: {fileID: 0}
  m_GameObject: {fileID: 1718881883565482}
  m_LocalRotation: {x: 0.0025357183, y: -0.0073521743, z: -0.47313836, w: 0.88095385}
  m_LocalPosition: {x: -0.02423428, y: -0.5561499, z: 1.2053}
  m_LocalScale: {x: 1, y: 1, z: 1}
  m_Children:
  - {fileID: 4634360491792354}
  - {fileID: 4752124052192574}
  m_Father: {fileID: 4155302749411800}
  m_RootOrder: 1
  m_LocalEulerAnglesHint: {x: 0, y: 0, z: 0}
--- !u!1 &1724814516847864
GameObject:
  m_ObjectHideFlags: 0
  m_CorrespondingSourceObject: {fileID: 0}
  m_PrefabInstance: {fileID: 0}
  m_PrefabAsset: {fileID: 0}
  serializedVersion: 6
  m_Component:
  - component: {fileID: 4526359462726868}
  m_Layer: 0
  m_Name: RestOfFingers_Intermediate_Right
  m_TagString: Untagged
  m_Icon: {fileID: 0}
  m_NavMeshLayer: 0
  m_StaticEditorFlags: 0
  m_IsActive: 1
--- !u!4 &4526359462726868
Transform:
  m_ObjectHideFlags: 0
  m_CorrespondingSourceObject: {fileID: 0}
  m_PrefabInstance: {fileID: 0}
  m_PrefabAsset: {fileID: 0}
  m_GameObject: {fileID: 1724814516847864}
  m_LocalRotation: {x: -0.0061721927, y: -0.012479491, z: 0.3441051, w: 0.93882793}
  m_LocalPosition: {x: -0.08025833, y: -1.7053025e-15, z: 4.8849813e-17}
  m_LocalScale: {x: 1, y: 1, z: 1}
  m_Children:
  - {fileID: 4206333357611724}
  m_Father: {fileID: 4071872300658134}
  m_RootOrder: 0
  m_LocalEulerAnglesHint: {x: 0, y: 0, z: 0}
--- !u!1 &1725876786759936
GameObject:
  m_ObjectHideFlags: 0
  m_CorrespondingSourceObject: {fileID: 0}
  m_PrefabInstance: {fileID: 0}
  m_PrefabAsset: {fileID: 0}
  serializedVersion: 6
  m_Component:
  - component: {fileID: 4494991074691304}
  - component: {fileID: 137775418526634902}
  m_Layer: 0
  m_Name: AssaultRifle
  m_TagString: Untagged
  m_Icon: {fileID: 0}
  m_NavMeshLayer: 0
  m_StaticEditorFlags: 0
  m_IsActive: 1
--- !u!4 &4494991074691304
Transform:
  m_ObjectHideFlags: 0
  m_CorrespondingSourceObject: {fileID: 0}
  m_PrefabInstance: {fileID: 0}
  m_PrefabAsset: {fileID: 0}
  m_GameObject: {fileID: 1725876786759936}
  m_LocalRotation: {x: 0, y: -0, z: -0, w: 1}
  m_LocalPosition: {x: -0, y: 0, z: 0}
  m_LocalScale: {x: 1, y: 1, z: 1}
  m_Children: []
  m_Father: {fileID: 4461509016300196}
  m_RootOrder: 1
  m_LocalEulerAnglesHint: {x: 0, y: 0, z: 0}
--- !u!137 &137775418526634902
SkinnedMeshRenderer:
  m_ObjectHideFlags: 0
  m_CorrespondingSourceObject: {fileID: 0}
  m_PrefabInstance: {fileID: 0}
  m_PrefabAsset: {fileID: 0}
  m_GameObject: {fileID: 1725876786759936}
  m_Enabled: 1
  m_CastShadows: 1
  m_ReceiveShadows: 1
  m_DynamicOccludee: 1
  m_MotionVectors: 1
  m_LightProbeUsage: 1
  m_ReflectionProbeUsage: 1
  m_RenderingLayerMask: 1
  m_RendererPriority: 0
  m_Materials:
  - {fileID: 2100000, guid: 1666fb81395f51e4293b01cca8f58481, type: 2}
  m_StaticBatchInfo:
    firstSubMesh: 0
    subMeshCount: 0
  m_StaticBatchRoot: {fileID: 0}
  m_ProbeAnchor: {fileID: 0}
  m_LightProbeVolumeOverride: {fileID: 0}
  m_ScaleInLightmap: 1
  m_PreserveUVs: 0
  m_IgnoreNormalsForChartDetection: 0
  m_ImportantGI: 0
  m_StitchLightmapSeams: 0
  m_SelectedEditorRenderState: 3
  m_MinimumChartSize: 4
  m_AutoUVMaxDistance: 0.5
  m_AutoUVMaxAngle: 89
  m_LightmapParameters: {fileID: 0}
  m_SortingLayerID: 0
  m_SortingLayer: 0
  m_SortingOrder: 0
  serializedVersion: 2
  m_Quality: 0
  m_UpdateWhenOffscreen: 0
  m_SkinnedMotionVectors: 1
  m_Mesh: {fileID: 4300010, guid: 4d1a7012e497b5645b59962f4f76af8f, type: 3}
  m_Bones:
  - {fileID: 4155302749411800}
  - {fileID: 4767384517146274}
  - {fileID: 4576326817692418}
  - {fileID: 4265529914067468}
  - {fileID: 4932858909452198}
  - {fileID: 4329572861923796}
  - {fileID: 4843204777420052}
  - {fileID: 4366149864032364}
  - {fileID: 4470568240115528}
  - {fileID: 4456058634490908}
  - {fileID: 4871742413835510}
  - {fileID: 4854802934796946}
  - {fileID: 4390648618449408}
  - {fileID: 4457406632358866}
  - {fileID: 4578618137329070}
  - {fileID: 4389953804475430}
  - {fileID: 4077082529006744}
  - {fileID: 4809867879811190}
  - {fileID: 4176839478663502}
  - {fileID: 4643318649315900}
  - {fileID: 4039510067716268}
  - {fileID: 4615783751978818}
  - {fileID: 4800983036181300}
  - {fileID: 4286910237292538}
  - {fileID: 4489576988091544}
  - {fileID: 4072028953399544}
  - {fileID: 4351849754679398}
  - {fileID: 4071872300658134}
  - {fileID: 4526359462726868}
  - {fileID: 4206333357611724}
  - {fileID: 4864853016498246}
  - {fileID: 4440206237161212}
  - {fileID: 4947493090804402}
  - {fileID: 4006512851812304}
  - {fileID: 4406224506356134}
  - {fileID: 4101758752499076}
  - {fileID: 4096300428845348}
  - {fileID: 4368840417456198}
  - {fileID: 4589171139438602}
  - {fileID: 4154928250372666}
  - {fileID: 4179306738525998}
  - {fileID: 4662635638205438}
  - {fileID: 4596754466478884}
  - {fileID: 4743861860367394}
  - {fileID: 4268404377392276}
  - {fileID: 4765476893222964}
  - {fileID: 4735963518054312}
  - {fileID: 4294564499881050}
  - {fileID: 4088755167668274}
  - {fileID: 4106520695970086}
  - {fileID: 4460367585722266}
  - {fileID: 4897548536715478}
  - {fileID: 4830185290988036}
  - {fileID: 4755017300832772}
  - {fileID: 4634360491792354}
  - {fileID: 4752124052192574}
  - {fileID: 4158355576759758}
  m_BlendShapeWeights: []
  m_RootBone: {fileID: 4155302749411800}
  m_AABB:
    m_Center: {x: -0.34279555, y: -0.490797, z: 1.2048371}
    m_Extent: {x: 0.95481485, y: 0.94669676, z: 0.10629511}
  m_DirtyAABB: 0
--- !u!1 &1740074883045820
GameObject:
  m_ObjectHideFlags: 0
  m_CorrespondingSourceObject: {fileID: 0}
  m_PrefabInstance: {fileID: 0}
  m_PrefabAsset: {fileID: 0}
  serializedVersion: 6
  m_Component:
  - component: {fileID: 4743861860367394}
  m_Layer: 0
  m_Name: UpperLeg_Left
  m_TagString: Untagged
  m_Icon: {fileID: 0}
  m_NavMeshLayer: 0
  m_StaticEditorFlags: 0
  m_IsActive: 1
--- !u!4 &4743861860367394
Transform:
  m_ObjectHideFlags: 0
  m_CorrespondingSourceObject: {fileID: 0}
  m_PrefabInstance: {fileID: 0}
  m_PrefabAsset: {fileID: 0}
  m_GameObject: {fileID: 1740074883045820}
  m_LocalRotation: {x: -0.030611672, y: -0.6954005, z: 0.7139541, w: 0.07583354}
  m_LocalPosition: {x: 0.00085238134, y: 0.0040205857, z: -0.1886419}
  m_LocalScale: {x: 1, y: 1, z: 1}
  m_Children:
  - {fileID: 4268404377392276}
  m_Father: {fileID: 4155302749411800}
  m_RootOrder: 3
  m_LocalEulerAnglesHint: {x: 0, y: 0, z: 0}
--- !u!1 &1770001271076084
GameObject:
  m_ObjectHideFlags: 0
  m_CorrespondingSourceObject: {fileID: 0}
  m_PrefabInstance: {fileID: 0}
  m_PrefabAsset: {fileID: 0}
  serializedVersion: 6
  m_Component:
  - component: {fileID: 4294564499881050}
  m_Layer: 0
  m_Name: Toetip_Left
  m_TagString: Untagged
  m_Icon: {fileID: 0}
  m_NavMeshLayer: 0
  m_StaticEditorFlags: 0
  m_IsActive: 1
--- !u!4 &4294564499881050
Transform:
  m_ObjectHideFlags: 0
  m_CorrespondingSourceObject: {fileID: 0}
  m_PrefabInstance: {fileID: 0}
  m_PrefabAsset: {fileID: 0}
  m_GameObject: {fileID: 1770001271076084}
  m_LocalRotation: {x: 0.00016529544, y: -0.016936114, z: -0.0047631934, w: 0.99984527}
  m_LocalPosition: {x: -0.1788387, y: 3.5527136e-17, z: 2.1316282e-16}
  m_LocalScale: {x: 1, y: 1, z: 1}
  m_Children: []
  m_Father: {fileID: 4735963518054312}
  m_RootOrder: 0
  m_LocalEulerAnglesHint: {x: 0, y: 0, z: 0}
--- !u!1 &1772080502529510
GameObject:
  m_ObjectHideFlags: 0
  m_CorrespondingSourceObject: {fileID: 0}
  m_PrefabInstance: {fileID: 0}
  m_PrefabAsset: {fileID: 0}
  serializedVersion: 6
  m_Component:
  - component: {fileID: 4806676996698870}
  - component: {fileID: 137410667948930422}
  m_Layer: 0
  m_Name: Body1
  m_TagString: Untagged
  m_Icon: {fileID: 0}
  m_NavMeshLayer: 0
  m_StaticEditorFlags: 0
  m_IsActive: 1
--- !u!4 &4806676996698870
Transform:
  m_ObjectHideFlags: 0
  m_CorrespondingSourceObject: {fileID: 0}
  m_PrefabInstance: {fileID: 0}
  m_PrefabAsset: {fileID: 0}
  m_GameObject: {fileID: 1772080502529510}
  m_LocalRotation: {x: 0, y: -0, z: -0, w: 1}
  m_LocalPosition: {x: -0, y: 0, z: 0}
  m_LocalScale: {x: 1, y: 1, z: 1}
  m_Children: []
  m_Father: {fileID: 4461509016300196}
  m_RootOrder: 3
  m_LocalEulerAnglesHint: {x: 0, y: 0, z: 0}
--- !u!137 &137410667948930422
SkinnedMeshRenderer:
  m_ObjectHideFlags: 0
  m_CorrespondingSourceObject: {fileID: 0}
  m_PrefabInstance: {fileID: 0}
  m_PrefabAsset: {fileID: 0}
  m_GameObject: {fileID: 1772080502529510}
  m_Enabled: 1
  m_CastShadows: 1
  m_ReceiveShadows: 1
  m_DynamicOccludee: 1
  m_MotionVectors: 1
  m_LightProbeUsage: 1
  m_ReflectionProbeUsage: 1
  m_RenderingLayerMask: 1
  m_RendererPriority: 0
  m_Materials:
  - {fileID: 2100000, guid: 1666fb81395f51e4293b01cca8f58481, type: 2}
  m_StaticBatchInfo:
    firstSubMesh: 0
    subMeshCount: 0
  m_StaticBatchRoot: {fileID: 0}
  m_ProbeAnchor: {fileID: 0}
  m_LightProbeVolumeOverride: {fileID: 0}
  m_ScaleInLightmap: 1
  m_PreserveUVs: 0
  m_IgnoreNormalsForChartDetection: 0
  m_ImportantGI: 0
  m_StitchLightmapSeams: 0
  m_SelectedEditorRenderState: 3
  m_MinimumChartSize: 4
  m_AutoUVMaxDistance: 0.5
  m_AutoUVMaxAngle: 89
  m_LightmapParameters: {fileID: 0}
  m_SortingLayerID: 0
  m_SortingLayer: 0
  m_SortingOrder: 0
  serializedVersion: 2
  m_Quality: 0
  m_UpdateWhenOffscreen: 0
  m_SkinnedMotionVectors: 1
  m_Mesh: {fileID: 4300002, guid: 4d1a7012e497b5645b59962f4f76af8f, type: 3}
  m_Bones:
  - {fileID: 4155302749411800}
  - {fileID: 4767384517146274}
  - {fileID: 4576326817692418}
  - {fileID: 4265529914067468}
  - {fileID: 4932858909452198}
  - {fileID: 4329572861923796}
  - {fileID: 4843204777420052}
  - {fileID: 4366149864032364}
  - {fileID: 4470568240115528}
  - {fileID: 4456058634490908}
  - {fileID: 4871742413835510}
  - {fileID: 4854802934796946}
  - {fileID: 4390648618449408}
  - {fileID: 4457406632358866}
  - {fileID: 4578618137329070}
  - {fileID: 4389953804475430}
  - {fileID: 4077082529006744}
  - {fileID: 4809867879811190}
  - {fileID: 4176839478663502}
  - {fileID: 4643318649315900}
  - {fileID: 4039510067716268}
  - {fileID: 4615783751978818}
  - {fileID: 4800983036181300}
  - {fileID: 4286910237292538}
  - {fileID: 4489576988091544}
  - {fileID: 4072028953399544}
  - {fileID: 4351849754679398}
  - {fileID: 4071872300658134}
  - {fileID: 4526359462726868}
  - {fileID: 4206333357611724}
  - {fileID: 4864853016498246}
  - {fileID: 4440206237161212}
  - {fileID: 4947493090804402}
  - {fileID: 4006512851812304}
  - {fileID: 4406224506356134}
  - {fileID: 4101758752499076}
  - {fileID: 4096300428845348}
  - {fileID: 4368840417456198}
  - {fileID: 4589171139438602}
  - {fileID: 4154928250372666}
  - {fileID: 4179306738525998}
  - {fileID: 4662635638205438}
  - {fileID: 4596754466478884}
  - {fileID: 4743861860367394}
  - {fileID: 4268404377392276}
  - {fileID: 4765476893222964}
  - {fileID: 4735963518054312}
  - {fileID: 4294564499881050}
  - {fileID: 4088755167668274}
  - {fileID: 4106520695970086}
  - {fileID: 4460367585722266}
  - {fileID: 4897548536715478}
  - {fileID: 4830185290988036}
  - {fileID: 4755017300832772}
  - {fileID: 4634360491792354}
  - {fileID: 4752124052192574}
  - {fileID: 4158355576759758}
  m_BlendShapeWeights: []
  m_RootBone: {fileID: 4155302749411800}
  m_AABB:
    m_Center: {x: -0.31982413, y: 0.025145918, z: 0.000000029802322}
    m_Extent: {x: 0.511261, y: 0.466044, z: 0.2774914}
  m_DirtyAABB: 0
--- !u!1 &1779271829915310
GameObject:
  m_ObjectHideFlags: 0
  m_CorrespondingSourceObject: {fileID: 0}
  m_PrefabInstance: {fileID: 0}
  m_PrefabAsset: {fileID: 0}
  serializedVersion: 6
  m_Component:
  - component: {fileID: 4096300428845348}
  m_Layer: 0
  m_Name: ShoulderPadCTRL_Right
  m_TagString: Untagged
  m_Icon: {fileID: 0}
  m_NavMeshLayer: 0
  m_StaticEditorFlags: 0
  m_IsActive: 1
--- !u!4 &4096300428845348
Transform:
  m_ObjectHideFlags: 0
  m_CorrespondingSourceObject: {fileID: 0}
  m_PrefabInstance: {fileID: 0}
  m_PrefabAsset: {fileID: 0}
  m_GameObject: {fileID: 1779271829915310}
  m_LocalRotation: {x: -0.039328646, y: 0.10945006, z: -0.6506794, w: 0.7503934}
  m_LocalPosition: {x: -0.09938715, y: 0.14657998, z: 0.010394469}
  m_LocalScale: {x: 1, y: 1, z: 1}
  m_Children:
  - {fileID: 4589171139438602}
  - {fileID: 4368840417456198}
  m_Father: {fileID: 4286910237292538}
  m_RootOrder: 0
  m_LocalEulerAnglesHint: {x: 0, y: 0, z: 0}
--- !u!1 &1782069042815166
GameObject:
  m_ObjectHideFlags: 0
  m_CorrespondingSourceObject: {fileID: 0}
  m_PrefabInstance: {fileID: 0}
  m_PrefabAsset: {fileID: 0}
  serializedVersion: 6
  m_Component:
  - component: {fileID: 4158355576759758}
  m_Layer: 0
  m_Name: ArmPosition_Left
  m_TagString: Untagged
  m_Icon: {fileID: 0}
  m_NavMeshLayer: 0
  m_StaticEditorFlags: 0
  m_IsActive: 1
--- !u!4 &4158355576759758
Transform:
  m_ObjectHideFlags: 0
  m_CorrespondingSourceObject: {fileID: 0}
  m_PrefabInstance: {fileID: 0}
  m_PrefabAsset: {fileID: 0}
  m_GameObject: {fileID: 1782069042815166}
  m_LocalRotation: {x: 0.0073521743, y: 0.002535718, z: 0.88095385, w: 0.47313833}
  m_LocalPosition: {x: -0.02423428, y: -0.5561499, z: -1.2053}
  m_LocalScale: {x: 1, y: 1, z: 1}
  m_Children: []
  m_Father: {fileID: 4155302749411800}
  m_RootOrder: 0
  m_LocalEulerAnglesHint: {x: 0, y: 0, z: 0}
--- !u!1 &1839935628981800
GameObject:
  m_ObjectHideFlags: 0
  m_CorrespondingSourceObject: {fileID: 0}
  m_PrefabInstance: {fileID: 0}
  m_PrefabAsset: {fileID: 0}
  serializedVersion: 6
  m_Component:
  - component: {fileID: 4457406632358866}
  m_Layer: 0
  m_Name: RestOfFingers_Distal_Left
  m_TagString: Untagged
  m_Icon: {fileID: 0}
  m_NavMeshLayer: 0
  m_StaticEditorFlags: 0
  m_IsActive: 1
--- !u!4 &4457406632358866
Transform:
  m_ObjectHideFlags: 0
  m_CorrespondingSourceObject: {fileID: 0}
  m_PrefabInstance: {fileID: 0}
  m_PrefabAsset: {fileID: 0}
  m_GameObject: {fileID: 1839935628981800}
  m_LocalRotation: {x: -0.004532425, y: -0.003425033, z: 0.11285209, w: 0.9935956}
  m_LocalPosition: {x: -0.08173605, y: -8.5265126e-16, z: -3.5527136e-17}
  m_LocalScale: {x: 1, y: 1, z: 1}
  m_Children: []
  m_Father: {fileID: 4390648618449408}
  m_RootOrder: 0
  m_LocalEulerAnglesHint: {x: 0, y: 0, z: 0}
--- !u!1 &1845963730292152
GameObject:
  m_ObjectHideFlags: 0
  m_CorrespondingSourceObject: {fileID: 0}
  m_PrefabInstance: {fileID: 0}
  m_PrefabAsset: {fileID: 0}
  serializedVersion: 6
  m_Component:
  - component: {fileID: 4643318649315900}
  m_Layer: 0
  m_Name: Thumb_Distal_Left
  m_TagString: Untagged
  m_Icon: {fileID: 0}
  m_NavMeshLayer: 0
  m_StaticEditorFlags: 0
  m_IsActive: 1
--- !u!4 &4643318649315900
Transform:
  m_ObjectHideFlags: 0
  m_CorrespondingSourceObject: {fileID: 0}
  m_PrefabInstance: {fileID: 0}
  m_PrefabAsset: {fileID: 0}
  m_GameObject: {fileID: 1845963730292152}
  m_LocalRotation: {x: -0.017883137, y: -0.03974522, z: -0.025908269, w: 0.99871385}
  m_LocalPosition: {x: -0.08816608, y: 0, z: 1.4210854e-16}
  m_LocalScale: {x: 1, y: 1, z: 1}
  m_Children: []
  m_Father: {fileID: 4176839478663502}
  m_RootOrder: 0
  m_LocalEulerAnglesHint: {x: 0, y: 0, z: 0}
--- !u!1 &1854354708131856
GameObject:
  m_ObjectHideFlags: 0
  m_CorrespondingSourceObject: {fileID: 0}
  m_PrefabInstance: {fileID: 0}
  m_PrefabAsset: {fileID: 0}
  serializedVersion: 6
  m_Component:
  - component: {fileID: 4809867879811190}
  m_Layer: 0
  m_Name: Thumb_Proximal_Left
  m_TagString: Untagged
  m_Icon: {fileID: 0}
  m_NavMeshLayer: 0
  m_StaticEditorFlags: 0
  m_IsActive: 1
--- !u!4 &4809867879811190
Transform:
  m_ObjectHideFlags: 0
  m_CorrespondingSourceObject: {fileID: 0}
  m_PrefabInstance: {fileID: 0}
  m_PrefabAsset: {fileID: 0}
  m_GameObject: {fileID: 1854354708131856}
  m_LocalRotation: {x: 0.057522308, y: 0.49499637, z: 0.112048574, w: 0.8597179}
  m_LocalPosition: {x: -0.0029221629, y: -0.0056363204, z: 0.12295864}
  m_LocalScale: {x: 1, y: 1, z: 1}
  m_Children:
  - {fileID: 4176839478663502}
  m_Father: {fileID: 4871742413835510}
  m_RootOrder: 2
  m_LocalEulerAnglesHint: {x: 0, y: 0, z: 0}
--- !u!1 &1857518446145750
GameObject:
  m_ObjectHideFlags: 0
  m_CorrespondingSourceObject: {fileID: 0}
  m_PrefabInstance: {fileID: 0}
  m_PrefabAsset: {fileID: 0}
  serializedVersion: 6
  m_Component:
  - component: {fileID: 4176839478663502}
  m_Layer: 0
  m_Name: Thumb_Intermediate_Left
  m_TagString: Untagged
  m_Icon: {fileID: 0}
  m_NavMeshLayer: 0
  m_StaticEditorFlags: 0
  m_IsActive: 1
--- !u!4 &4176839478663502
Transform:
  m_ObjectHideFlags: 0
  m_CorrespondingSourceObject: {fileID: 0}
  m_PrefabInstance: {fileID: 0}
  m_PrefabAsset: {fileID: 0}
  m_GameObject: {fileID: 1857518446145750}
  m_LocalRotation: {x: -0.04900198, y: -0.13549508, z: 0.10049181, w: 0.98444974}
  m_LocalPosition: {x: -0.098357715, y: -1.1368684e-15, z: -2.842171e-16}
  m_LocalScale: {x: 1, y: 1, z: 1}
  m_Children:
  - {fileID: 4643318649315900}
  m_Father: {fileID: 4809867879811190}
  m_RootOrder: 0
  m_LocalEulerAnglesHint: {x: 0, y: 0, z: 0}
--- !u!1 &1864978257721958
GameObject:
  m_ObjectHideFlags: 0
  m_CorrespondingSourceObject: {fileID: 0}
  m_PrefabInstance: {fileID: 0}
  m_PrefabAsset: {fileID: 0}
  serializedVersion: 6
  m_Component:
  - component: {fileID: 4854802934796946}
  m_Layer: 0
  m_Name: RestOfFingers_Proximal_Left
  m_TagString: Untagged
  m_Icon: {fileID: 0}
  m_NavMeshLayer: 0
  m_StaticEditorFlags: 0
  m_IsActive: 1
--- !u!4 &4854802934796946
Transform:
  m_ObjectHideFlags: 0
  m_CorrespondingSourceObject: {fileID: 0}
  m_PrefabInstance: {fileID: 0}
  m_PrefabAsset: {fileID: 0}
  m_GameObject: {fileID: 1864978257721958}
  m_LocalRotation: {x: 0.0028340812, y: 0.060178064, z: 0.060824323, w: 0.9963288}
  m_LocalPosition: {x: -0.18094444, y: 5.684342e-16, z: 1.7763568e-17}
  m_LocalScale: {x: 1, y: 1, z: 1}
  m_Children:
  - {fileID: 4390648618449408}
  m_Father: {fileID: 4871742413835510}
  m_RootOrder: 1
  m_LocalEulerAnglesHint: {x: 0, y: 0, z: 0}
--- !u!1 &1876999894666458
GameObject:
  m_ObjectHideFlags: 0
  m_CorrespondingSourceObject: {fileID: 0}
  m_PrefabInstance: {fileID: 0}
  m_PrefabAsset: {fileID: 0}
  serializedVersion: 6
  m_Component:
  - component: {fileID: 4871742413835510}
  m_Layer: 0
  m_Name: Hand_Left
  m_TagString: Untagged
  m_Icon: {fileID: 0}
  m_NavMeshLayer: 0
  m_StaticEditorFlags: 0
  m_IsActive: 1
--- !u!4 &4871742413835510
Transform:
  m_ObjectHideFlags: 0
  m_CorrespondingSourceObject: {fileID: 0}
  m_PrefabInstance: {fileID: 0}
  m_PrefabAsset: {fileID: 0}
  m_GameObject: {fileID: 1876999894666458}
  m_LocalRotation: {x: 0.0005932963, y: -0.08528753, z: -0.006930911, w: 0.9963321}
  m_LocalPosition: {x: -0.37441498, y: 8.5265126e-16, z: 2.753353e-16}
  m_LocalScale: {x: 1, y: 1, z: 1}
  m_Children:
  - {fileID: 4578618137329070}
  - {fileID: 4854802934796946}
  - {fileID: 4809867879811190}
  m_Father: {fileID: 4456058634490908}
  m_RootOrder: 0
  m_LocalEulerAnglesHint: {x: 0, y: 0, z: 0}
--- !u!1 &1892432154747930
GameObject:
  m_ObjectHideFlags: 0
  m_CorrespondingSourceObject: {fileID: 0}
  m_PrefabInstance: {fileID: 0}
  m_PrefabAsset: {fileID: 0}
  serializedVersion: 6
  m_Component:
  - component: {fileID: 4006512851812304}
  m_Layer: 0
  m_Name: Thumb_Proximal_Right
  m_TagString: Untagged
  m_Icon: {fileID: 0}
  m_NavMeshLayer: 0
  m_StaticEditorFlags: 0
  m_IsActive: 1
--- !u!4 &4006512851812304
Transform:
  m_ObjectHideFlags: 0
  m_CorrespondingSourceObject: {fileID: 0}
  m_PrefabInstance: {fileID: 0}
  m_PrefabAsset: {fileID: 0}
  m_GameObject: {fileID: 1892432154747930}
  m_LocalRotation: {x: -0.057529792, y: -0.49499094, z: 0.11207554, w: 0.859717}
  m_LocalPosition: {x: -0.0029218963, y: -0.005631239, z: -0.1229586}
  m_LocalScale: {x: 1, y: 1, z: 1}
  m_Children:
  - {fileID: 4406224506356134}
  m_Father: {fileID: 4351849754679398}
  m_RootOrder: 2
  m_LocalEulerAnglesHint: {x: 0, y: 0, z: 0}
--- !u!1 &1900033556094832
GameObject:
  m_ObjectHideFlags: 0
  m_CorrespondingSourceObject: {fileID: 0}
  m_PrefabInstance: {fileID: 0}
  m_PrefabAsset: {fileID: 0}
  serializedVersion: 6
  m_Component:
  - component: {fileID: 4864853016498246}
  m_Layer: 0
  m_Name: Index_Proximal_Right
  m_TagString: Untagged
  m_Icon: {fileID: 0}
  m_NavMeshLayer: 0
  m_StaticEditorFlags: 0
  m_IsActive: 1
--- !u!4 &4864853016498246
Transform:
  m_ObjectHideFlags: 0
  m_CorrespondingSourceObject: {fileID: 0}
  m_PrefabInstance: {fileID: 0}
  m_PrefabAsset: {fileID: 0}
  m_GameObject: {fileID: 1900033556094832}
  m_LocalRotation: {x: -0.0028644414, y: -0.042128764, z: 0.08165133, w: 0.99576604}
  m_LocalPosition: {x: -0.13357139, y: -0.0009103328, z: -0.13440055}
  m_LocalScale: {x: 1, y: 1, z: 1}
  m_Children:
  - {fileID: 4440206237161212}
  m_Father: {fileID: 4351849754679398}
  m_RootOrder: 0
  m_LocalEulerAnglesHint: {x: 0, y: 0, z: 0}
--- !u!1 &1913911806733430
GameObject:
  m_ObjectHideFlags: 0
  m_CorrespondingSourceObject: {fileID: 0}
  m_PrefabInstance: {fileID: 0}
  m_PrefabAsset: {fileID: 0}
  serializedVersion: 6
  m_Component:
  - component: {fileID: 4735963518054312}
  m_Layer: 0
  m_Name: Toe_Left
  m_TagString: Untagged
  m_Icon: {fileID: 0}
  m_NavMeshLayer: 0
  m_StaticEditorFlags: 0
  m_IsActive: 1
--- !u!4 &4735963518054312
Transform:
  m_ObjectHideFlags: 0
  m_CorrespondingSourceObject: {fileID: 0}
  m_PrefabInstance: {fileID: 0}
  m_PrefabAsset: {fileID: 0}
  m_GameObject: {fileID: 1913911806733430}
  m_LocalRotation: {x: 0.0013659683, y: 0.0051824837, z: -0.24785845, w: 0.9687815}
  m_LocalPosition: {x: -0.1377113, y: 1.9539925e-16, z: -1.0658141e-16}
  m_LocalScale: {x: 1, y: 1, z: 1}
  m_Children:
  - {fileID: 4294564499881050}
  m_Father: {fileID: 4765476893222964}
  m_RootOrder: 0
  m_LocalEulerAnglesHint: {x: 0, y: 0, z: 0}
--- !u!1 &1916882787164214
GameObject:
  m_ObjectHideFlags: 0
  m_CorrespondingSourceObject: {fileID: 0}
  m_PrefabInstance: {fileID: 0}
  m_PrefabAsset: {fileID: 0}
  serializedVersion: 6
  m_Component:
  - component: {fileID: 4897548536715478}
  m_Layer: 0
  m_Name: Toe_Right
  m_TagString: Untagged
  m_Icon: {fileID: 0}
  m_NavMeshLayer: 0
  m_StaticEditorFlags: 0
  m_IsActive: 1
--- !u!4 &4897548536715478
Transform:
  m_ObjectHideFlags: 0
  m_CorrespondingSourceObject: {fileID: 0}
  m_PrefabInstance: {fileID: 0}
  m_PrefabAsset: {fileID: 0}
  m_GameObject: {fileID: 1916882787164214}
  m_LocalRotation: {x: -0.0013655907, y: -0.005181019, z: -0.24785995, w: 0.9687811}
  m_LocalPosition: {x: -0.13771145, y: 2.1316282e-16, z: 1.0658141e-16}
  m_LocalScale: {x: 1, y: 1, z: 1}
  m_Children:
  - {fileID: 4830185290988036}
  m_Father: {fileID: 4460367585722266}
  m_RootOrder: 0
  m_LocalEulerAnglesHint: {x: 0, y: 0, z: 0}
