%YAML 1.1
%TAG !u! tag:unity3d.com,2011:
--- !u!1 &2316203518513525337
GameObject:
  m_ObjectHideFlags: 0
  m_CorrespondingSourceObject: {fileID: 0}
  m_PrefabInstance: {fileID: 0}
  m_PrefabAsset: {fileID: 0}
  serializedVersion: 6
  m_Component:
  - component: {fileID: 2316203518513525342}
  - component: {fileID: 2316203518513525343}
  - component: {fileID: 2316203518513525336}
  m_Layer: 0
  m_Name: ProfileIntersection (3)
  m_TagString: Untagged
  m_Icon: {fileID: 0}
  m_NavMeshLayer: 0
  m_StaticEditorFlags: 4294967295
  m_IsActive: 1
--- !u!4 &2316203518513525342
Transform:
  m_ObjectHideFlags: 0
  m_CorrespondingSourceObject: {fileID: 0}
  m_PrefabInstance: {fileID: 0}
  m_PrefabAsset: {fileID: 0}
  m_GameObject: {fileID: 2316203518513525337}
  m_LocalRotation: {x: 0, y: 0, z: 0, w: 1}
  m_LocalPosition: {x: 0.036584854, y: -0.033242665, z: -7.03}
  m_LocalScale: {x: 1, y: 1, z: 1}
  m_Children:
  - {fileID: 1492178002080394087}
  - {fileID: 2316203519826442155}
  - {fileID: 2595059000658559032}
  - {fileID: 3743026677812637074}
  - {fileID: 5165574655770097931}
  - {fileID: 2316203519191963494}
  - {fileID: 2316203519267346729}
  - {fileID: 2316203519707667659}
  - {fileID: 2316203519034546072}
  - {fileID: 2316203520275259129}
  - {fileID: 2316203519223339782}
  - {fileID: 2316203520362424014}
  - {fileID: 2316203518905687074}
  - {fileID: 2316203518839921571}
  - {fileID: 7618554052906949364}
  - {fileID: 2316203519290465341}
  - {fileID: 2316203518428183625}
  - {fileID: 2316203519455440321}
  - {fileID: 2316203519963790033}
  - {fileID: 2316203518734209409}
  - {fileID: 2316203519998616430}
  - {fileID: 2316203518826409892}
  m_Father: {fileID: 0}
  m_RootOrder: 0
  m_LocalEulerAnglesHint: {x: 0, y: 0, z: 0}
--- !u!33 &2316203518513525343
MeshFilter:
  m_ObjectHideFlags: 0
  m_CorrespondingSourceObject: {fileID: 0}
  m_PrefabInstance: {fileID: 0}
  m_PrefabAsset: {fileID: 0}
  m_GameObject: {fileID: 2316203518513525337}
  m_Mesh: {fileID: 4300000, guid: 499da3cd699534c44b84f7eb01db1311, type: 3}
--- !u!23 &2316203518513525336
MeshRenderer:
  m_ObjectHideFlags: 0
  m_CorrespondingSourceObject: {fileID: 0}
  m_PrefabInstance: {fileID: 0}
  m_PrefabAsset: {fileID: 0}
  m_GameObject: {fileID: 2316203518513525337}
  m_Enabled: 1
  m_CastShadows: 1
  m_ReceiveShadows: 1
  m_DynamicOccludee: 1
  m_MotionVectors: 1
  m_LightProbeUsage: 1
  m_ReflectionProbeUsage: 1
  m_RenderingLayerMask: 1
  m_RendererPriority: 0
  m_Materials:
  - {fileID: 2100000, guid: edea2fcd3ceca464b94f378d3a6c2afe, type: 2}
  m_StaticBatchInfo:
    firstSubMesh: 0
    subMeshCount: 0
  m_StaticBatchRoot: {fileID: 0}
  m_ProbeAnchor: {fileID: 0}
  m_LightProbeVolumeOverride: {fileID: 0}
  m_ScaleInLightmap: 1
  m_PreserveUVs: 0
  m_IgnoreNormalsForChartDetection: 0
  m_ImportantGI: 0
  m_StitchLightmapSeams: 0
  m_SelectedEditorRenderState: 3
  m_MinimumChartSize: 4
  m_AutoUVMaxDistance: 0.5
  m_AutoUVMaxAngle: 89
  m_LightmapParameters: {fileID: 0}
  m_SortingLayerID: 0
  m_SortingLayer: 0
  m_SortingOrder: 0
--- !u!1 &2316203518826409893
GameObject:
  m_ObjectHideFlags: 0
  m_CorrespondingSourceObject: {fileID: 0}
  m_PrefabInstance: {fileID: 0}
  m_PrefabAsset: {fileID: 0}
  serializedVersion: 6
  m_Component:
  - component: {fileID: 2316203518826409892}
  - component: {fileID: 2316203518826409899}
  m_Layer: 0
  m_Name: Point Light
  m_TagString: Untagged
  m_Icon: {fileID: 0}
  m_NavMeshLayer: 0
  m_StaticEditorFlags: 0
  m_IsActive: 1
--- !u!4 &2316203518826409892
Transform:
  m_ObjectHideFlags: 0
  m_CorrespondingSourceObject: {fileID: 0}
  m_PrefabInstance: {fileID: 0}
  m_PrefabAsset: {fileID: 0}
  m_GameObject: {fileID: 2316203518826409893}
  m_LocalRotation: {x: 0, y: 0, z: 0, w: 1}
  m_LocalPosition: {x: 0, y: 0, z: 0}
  m_LocalScale: {x: 1, y: 1, z: 1}
  m_Children: []
  m_Father: {fileID: 2316203518513525342}
  m_RootOrder: 21
  m_LocalEulerAnglesHint: {x: 0, y: 0, z: 0}
--- !u!108 &2316203518826409899
Light:
  m_ObjectHideFlags: 0
  m_CorrespondingSourceObject: {fileID: 0}
  m_PrefabInstance: {fileID: 0}
  m_PrefabAsset: {fileID: 0}
  m_GameObject: {fileID: 2316203518826409893}
  m_Enabled: 1
  serializedVersion: 8
  m_Type: 2
  m_Color: {r: 0.4448202, g: 0.5742803, b: 0.7924528, a: 1}
  m_Intensity: 1
  m_Range: 7
  m_SpotAngle: 30
  m_CookieSize: 10
  m_Shadows:
    m_Type: 2
    m_Resolution: -1
    m_CustomResolution: -1
    m_Strength: 1
    m_Bias: 0.05
    m_NormalBias: 0.4
    m_NearPlane: 0.2
  m_Cookie: {fileID: 0}
  m_DrawHalo: 0
  m_Flare: {fileID: 0}
  m_RenderMode: 0
  m_CullingMask:
    serializedVersion: 2
    m_Bits: 4294967295
  m_Lightmapping: 4
  m_LightShadowCasterMode: 0
  m_AreaSize: {x: 1, y: 1}
  m_BounceIntensity: 1
  m_ColorTemperature: 6570
  m_UseColorTemperature: 0
  m_ShadowRadius: 0
  m_ShadowAngle: 0
--- !u!1001 &2316203518428309193
PrefabInstance:
  m_ObjectHideFlags: 0
  serializedVersion: 2
  m_Modification:
    m_TransformParent: {fileID: 2316203518513525342}
    m_Modifications:
    - target: {fileID: 100000, guid: e554b1ced7e574e68b01a47c95fa9ad9, type: 3}
      propertyPath: m_Name
      value: Floor5 (2)
      objectReference: {fileID: 0}
    - target: {fileID: 400000, guid: e554b1ced7e574e68b01a47c95fa9ad9, type: 3}
      propertyPath: m_LocalPosition.x
      value: -0.036584854
      objectReference: {fileID: 0}
    - target: {fileID: 400000, guid: e554b1ced7e574e68b01a47c95fa9ad9, type: 3}
      propertyPath: m_LocalPosition.y
      value: -0.95503306
      objectReference: {fileID: 0}
    - target: {fileID: 400000, guid: e554b1ced7e574e68b01a47c95fa9ad9, type: 3}
      propertyPath: m_LocalPosition.z
      value: -1.0917578
      objectReference: {fileID: 0}
    - target: {fileID: 400000, guid: e554b1ced7e574e68b01a47c95fa9ad9, type: 3}
      propertyPath: m_LocalRotation.x
      value: -0
      objectReference: {fileID: 0}
    - target: {fileID: 400000, guid: e554b1ced7e574e68b01a47c95fa9ad9, type: 3}
      propertyPath: m_LocalRotation.y
      value: -0
      objectReference: {fileID: 0}
    - target: {fileID: 400000, guid: e554b1ced7e574e68b01a47c95fa9ad9, type: 3}
      propertyPath: m_LocalRotation.z
      value: -0
      objectReference: {fileID: 0}
    - target: {fileID: 400000, guid: e554b1ced7e574e68b01a47c95fa9ad9, type: 3}
      propertyPath: m_LocalRotation.w
      value: 1
      objectReference: {fileID: 0}
    - target: {fileID: 400000, guid: e554b1ced7e574e68b01a47c95fa9ad9, type: 3}
      propertyPath: m_RootOrder
      value: 16
      objectReference: {fileID: 0}
    - target: {fileID: 400000, guid: e554b1ced7e574e68b01a47c95fa9ad9, type: 3}
      propertyPath: m_LocalEulerAnglesHint.x
      value: 0
      objectReference: {fileID: 0}
    - target: {fileID: 400000, guid: e554b1ced7e574e68b01a47c95fa9ad9, type: 3}
      propertyPath: m_LocalEulerAnglesHint.y
      value: 0
      objectReference: {fileID: 0}
    - target: {fileID: 400000, guid: e554b1ced7e574e68b01a47c95fa9ad9, type: 3}
      propertyPath: m_LocalEulerAnglesHint.z
      value: 0
      objectReference: {fileID: 0}
    - target: {fileID: 2300000, guid: e554b1ced7e574e68b01a47c95fa9ad9, type: 3}
      propertyPath: m_Materials.Array.data[0]
      value: 
      objectReference: {fileID: 2100000, guid: 8a33980753f504f7da530fcbb60108bb, type: 2}
    m_RemovedComponents: []
  m_SourcePrefab: {fileID: 100100000, guid: e554b1ced7e574e68b01a47c95fa9ad9, type: 3}
--- !u!4 &2316203518428183625 stripped
Transform:
  m_CorrespondingSourceObject: {fileID: 400000, guid: e554b1ced7e574e68b01a47c95fa9ad9,
    type: 3}
  m_PrefabInstance: {fileID: 2316203518428309193}
  m_PrefabAsset: {fileID: 0}
--- !u!1001 &2316203518734600961
PrefabInstance:
  m_ObjectHideFlags: 0
  serializedVersion: 2
  m_Modification:
    m_TransformParent: {fileID: 2316203518513525342}
    m_Modifications:
    - target: {fileID: 100000, guid: d5db039f0039f48c79eec07d8b158f74, type: 3}
      propertyPath: m_Name
      value: TopWall4 (4)
      objectReference: {fileID: 0}
    - target: {fileID: 100000, guid: d5db039f0039f48c79eec07d8b158f74, type: 3}
      propertyPath: m_StaticEditorFlags
      value: 4294967295
      objectReference: {fileID: 0}
    - target: {fileID: 400000, guid: d5db039f0039f48c79eec07d8b158f74, type: 3}
      propertyPath: m_LocalPosition.x
      value: -0.036585
      objectReference: {fileID: 0}
    - target: {fileID: 400000, guid: d5db039f0039f48c79eec07d8b158f74, type: 3}
      propertyPath: m_LocalPosition.y
      value: 1.3765
      objectReference: {fileID: 0}
    - target: {fileID: 400000, guid: d5db039f0039f48c79eec07d8b158f74, type: 3}
      propertyPath: m_LocalPosition.z
      value: -0.72099
      objectReference: {fileID: 0}
    - target: {fileID: 400000, guid: d5db039f0039f48c79eec07d8b158f74, type: 3}
      propertyPath: m_LocalRotation.x
      value: -0
      objectReference: {fileID: 0}
    - target: {fileID: 400000, guid: d5db039f0039f48c79eec07d8b158f74, type: 3}
      propertyPath: m_LocalRotation.y
      value: 0
      objectReference: {fileID: 0}
    - target: {fileID: 400000, guid: d5db039f0039f48c79eec07d8b158f74, type: 3}
      propertyPath: m_LocalRotation.z
      value: -0
      objectReference: {fileID: 0}
    - target: {fileID: 400000, guid: d5db039f0039f48c79eec07d8b158f74, type: 3}
      propertyPath: m_LocalRotation.w
      value: 1
      objectReference: {fileID: 0}
    - target: {fileID: 400000, guid: d5db039f0039f48c79eec07d8b158f74, type: 3}
      propertyPath: m_RootOrder
      value: 19
      objectReference: {fileID: 0}
    - target: {fileID: 400000, guid: d5db039f0039f48c79eec07d8b158f74, type: 3}
      propertyPath: m_LocalEulerAnglesHint.x
      value: 0
      objectReference: {fileID: 0}
    - target: {fileID: 400000, guid: d5db039f0039f48c79eec07d8b158f74, type: 3}
      propertyPath: m_LocalEulerAnglesHint.y
      value: 0
      objectReference: {fileID: 0}
    - target: {fileID: 400000, guid: d5db039f0039f48c79eec07d8b158f74, type: 3}
      propertyPath: m_LocalEulerAnglesHint.z
      value: 0
      objectReference: {fileID: 0}
    - target: {fileID: 2300000, guid: d5db039f0039f48c79eec07d8b158f74, type: 3}
      propertyPath: m_Materials.Array.data[0]
      value: 
      objectReference: {fileID: 2100000, guid: 1949eb32d4bff4170aa413da81e1cd0d, type: 2}
    m_RemovedComponents: []
  m_SourcePrefab: {fileID: 100100000, guid: d5db039f0039f48c79eec07d8b158f74, type: 3}
--- !u!4 &2316203518734209409 stripped
Transform:
  m_CorrespondingSourceObject: {fileID: 400000, guid: d5db039f0039f48c79eec07d8b158f74,
    type: 3}
  m_PrefabInstance: {fileID: 2316203518734600961}
  m_PrefabAsset: {fileID: 0}
--- !u!1001 &2316203518757012110
PrefabInstance:
  m_ObjectHideFlags: 0
  serializedVersion: 2
  m_Modification:
    m_TransformParent: {fileID: 2316203518513525342}
    m_Modifications:
    - target: {fileID: 1334295600580035087, guid: bfbe2d0ef9f1b4132a79fecec88405c3,
        type: 3}
      propertyPath: m_Name
      value: WallIntersection2
      objectReference: {fileID: 0}
    - target: {fileID: 1429092688494374684, guid: bfbe2d0ef9f1b4132a79fecec88405c3,
        type: 3}
      propertyPath: m_LocalPosition.x
      value: 1.2512233
      objectReference: {fileID: 0}
    - target: {fileID: 1429092688494374684, guid: bfbe2d0ef9f1b4132a79fecec88405c3,
        type: 3}
      propertyPath: m_LocalPosition.y
      value: 0.08133721
      objectReference: {fileID: 0}
    - target: {fileID: 1429092688494374684, guid: bfbe2d0ef9f1b4132a79fecec88405c3,
        type: 3}
      propertyPath: m_LocalPosition.z
      value: 1.0653825
      objectReference: {fileID: 0}
    - target: {fileID: 1429092688494374684, guid: bfbe2d0ef9f1b4132a79fecec88405c3,
        type: 3}
      propertyPath: m_LocalRotation.x
      value: -3.3138685e-17
      objectReference: {fileID: 0}
    - target: {fileID: 1429092688494374684, guid: bfbe2d0ef9f1b4132a79fecec88405c3,
        type: 3}
      propertyPath: m_LocalRotation.y
      value: 0.92387944
      objectReference: {fileID: 0}
    - target: {fileID: 1429092688494374684, guid: bfbe2d0ef9f1b4132a79fecec88405c3,
        type: 3}
      propertyPath: m_LocalRotation.z
      value: 3.3138685e-17
      objectReference: {fileID: 0}
    - target: {fileID: 1429092688494374684, guid: bfbe2d0ef9f1b4132a79fecec88405c3,
        type: 3}
      propertyPath: m_LocalRotation.w
      value: -0.38268366
      objectReference: {fileID: 0}
    - target: {fileID: 1429092688494374684, guid: bfbe2d0ef9f1b4132a79fecec88405c3,
        type: 3}
      propertyPath: m_RootOrder
      value: 3
      objectReference: {fileID: 0}
    - target: {fileID: 1429092688494374684, guid: bfbe2d0ef9f1b4132a79fecec88405c3,
        type: 3}
      propertyPath: m_LocalEulerAnglesHint.x
      value: 0
      objectReference: {fileID: 0}
    - target: {fileID: 1429092688494374684, guid: bfbe2d0ef9f1b4132a79fecec88405c3,
        type: 3}
      propertyPath: m_LocalEulerAnglesHint.y
      value: 0
      objectReference: {fileID: 0}
    - target: {fileID: 1429092688494374684, guid: bfbe2d0ef9f1b4132a79fecec88405c3,
        type: 3}
      propertyPath: m_LocalEulerAnglesHint.z
      value: 0
      objectReference: {fileID: 0}
    m_RemovedComponents: []
  m_SourcePrefab: {fileID: 100100000, guid: bfbe2d0ef9f1b4132a79fecec88405c3, type: 3}
--- !u!4 &3743026677812637074 stripped
Transform:
  m_CorrespondingSourceObject: {fileID: 1429092688494374684, guid: bfbe2d0ef9f1b4132a79fecec88405c3,
    type: 3}
  m_PrefabInstance: {fileID: 2316203518757012110}
  m_PrefabAsset: {fileID: 0}
--- !u!1001 &2316203518839521571
PrefabInstance:
  m_ObjectHideFlags: 0
  serializedVersion: 2
  m_Modification:
    m_TransformParent: {fileID: 2316203518513525342}
    m_Modifications:
    - target: {fileID: 100000, guid: ba9515a32ea084cf0b1832e4d456ecec, type: 3}
      propertyPath: m_Name
      value: WallIntersection3 (3)
      objectReference: {fileID: 0}
    - target: {fileID: 100000, guid: ba9515a32ea084cf0b1832e4d456ecec, type: 3}
      propertyPath: m_StaticEditorFlags
      value: 4294967295
      objectReference: {fileID: 0}
    - target: {fileID: 400000, guid: ba9515a32ea084cf0b1832e4d456ecec, type: 3}
      propertyPath: m_LocalPosition.x
      value: -1.3288848
      objectReference: {fileID: 0}
    - target: {fileID: 400000, guid: ba9515a32ea084cf0b1832e4d456ecec, type: 3}
      propertyPath: m_LocalPosition.y
      value: 0.72627264
      objectReference: {fileID: 0}
    - target: {fileID: 400000, guid: ba9515a32ea084cf0b1832e4d456ecec, type: 3}
      propertyPath: m_LocalPosition.z
      value: 1.0668421
      objectReference: {fileID: 0}
    - target: {fileID: 400000, guid: ba9515a32ea084cf0b1832e4d456ecec, type: 3}
      propertyPath: m_LocalRotation.x
      value: -0
      objectReference: {fileID: 0}
    - target: {fileID: 400000, guid: ba9515a32ea084cf0b1832e4d456ecec, type: 3}
      propertyPath: m_LocalRotation.y
      value: 0.92387956
      objectReference: {fileID: 0}
    - target: {fileID: 400000, guid: ba9515a32ea084cf0b1832e4d456ecec, type: 3}
      propertyPath: m_LocalRotation.z
      value: -0
      objectReference: {fileID: 0}
    - target: {fileID: 400000, guid: ba9515a32ea084cf0b1832e4d456ecec, type: 3}
      propertyPath: m_LocalRotation.w
      value: 0.38268343
      objectReference: {fileID: 0}
    - target: {fileID: 400000, guid: ba9515a32ea084cf0b1832e4d456ecec, type: 3}
      propertyPath: m_RootOrder
      value: 13
      objectReference: {fileID: 0}
    - target: {fileID: 400000, guid: ba9515a32ea084cf0b1832e4d456ecec, type: 3}
      propertyPath: m_LocalEulerAnglesHint.x
      value: 0
      objectReference: {fileID: 0}
    - target: {fileID: 400000, guid: ba9515a32ea084cf0b1832e4d456ecec, type: 3}
      propertyPath: m_LocalEulerAnglesHint.y
      value: 135
      objectReference: {fileID: 0}
    - target: {fileID: 400000, guid: ba9515a32ea084cf0b1832e4d456ecec, type: 3}
      propertyPath: m_LocalEulerAnglesHint.z
      value: 0
      objectReference: {fileID: 0}
    - target: {fileID: 2300000, guid: ba9515a32ea084cf0b1832e4d456ecec, type: 3}
      propertyPath: m_Materials.Array.data[0]
      value: 
      objectReference: {fileID: 2100000, guid: 65424cb5f67f4418788e23c2be2ab06e, type: 2}
    m_RemovedComponents: []
  m_SourcePrefab: {fileID: 100100000, guid: ba9515a32ea084cf0b1832e4d456ecec, type: 3}
--- !u!4 &2316203518839921571 stripped
Transform:
  m_CorrespondingSourceObject: {fileID: 400000, guid: ba9515a32ea084cf0b1832e4d456ecec,
    type: 3}
  m_PrefabInstance: {fileID: 2316203518839521571}
  m_PrefabAsset: {fileID: 0}
--- !u!1001 &2316203518905812642
PrefabInstance:
  m_ObjectHideFlags: 0
  serializedVersion: 2
  m_Modification:
    m_TransformParent: {fileID: 2316203518513525342}
    m_Modifications:
    - target: {fileID: 100000, guid: 06c233e130160473fa9e8ce5a4bbd5c4, type: 3}
      propertyPath: m_Name
      value: WallIntersection2 (3)
      objectReference: {fileID: 0}
    - target: {fileID: 100000, guid: 06c233e130160473fa9e8ce5a4bbd5c4, type: 3}
      propertyPath: m_StaticEditorFlags
      value: 4294967295
      objectReference: {fileID: 0}
    - target: {fileID: 400000, guid: 06c233e130160473fa9e8ce5a4bbd5c4, type: 3}
      propertyPath: m_LocalPosition.x
      value: -1.3301848
      objectReference: {fileID: 0}
    - target: {fileID: 400000, guid: 06c233e130160473fa9e8ce5a4bbd5c4, type: 3}
      propertyPath: m_LocalPosition.y
      value: 0.07643066
      objectReference: {fileID: 0}
    - target: {fileID: 400000, guid: 06c233e130160473fa9e8ce5a4bbd5c4, type: 3}
      propertyPath: m_LocalPosition.z
      value: 1.064342
      objectReference: {fileID: 0}
    - target: {fileID: 400000, guid: 06c233e130160473fa9e8ce5a4bbd5c4, type: 3}
      propertyPath: m_LocalRotation.x
      value: -0
      objectReference: {fileID: 0}
    - target: {fileID: 400000, guid: 06c233e130160473fa9e8ce5a4bbd5c4, type: 3}
      propertyPath: m_LocalRotation.y
      value: 0.92387956
      objectReference: {fileID: 0}
    - target: {fileID: 400000, guid: 06c233e130160473fa9e8ce5a4bbd5c4, type: 3}
      propertyPath: m_LocalRotation.z
      value: -0
      objectReference: {fileID: 0}
    - target: {fileID: 400000, guid: 06c233e130160473fa9e8ce5a4bbd5c4, type: 3}
      propertyPath: m_LocalRotation.w
      value: 0.38268343
      objectReference: {fileID: 0}
    - target: {fileID: 400000, guid: 06c233e130160473fa9e8ce5a4bbd5c4, type: 3}
      propertyPath: m_RootOrder
      value: 12
      objectReference: {fileID: 0}
    - target: {fileID: 400000, guid: 06c233e130160473fa9e8ce5a4bbd5c4, type: 3}
      propertyPath: m_LocalEulerAnglesHint.x
      value: 0
      objectReference: {fileID: 0}
    - target: {fileID: 400000, guid: 06c233e130160473fa9e8ce5a4bbd5c4, type: 3}
      propertyPath: m_LocalEulerAnglesHint.y
      value: 135
      objectReference: {fileID: 0}
    - target: {fileID: 400000, guid: 06c233e130160473fa9e8ce5a4bbd5c4, type: 3}
      propertyPath: m_LocalEulerAnglesHint.z
      value: 0
      objectReference: {fileID: 0}
    - target: {fileID: 2300000, guid: 06c233e130160473fa9e8ce5a4bbd5c4, type: 3}
      propertyPath: m_Materials.Array.data[0]
      value: 
      objectReference: {fileID: 2100000, guid: c84fc8a30e4d243798a7fe3095ce3d76, type: 2}
    m_RemovedComponents: []
  m_SourcePrefab: {fileID: 100100000, guid: 06c233e130160473fa9e8ce5a4bbd5c4, type: 3}
--- !u!4 &2316203518905687074 stripped
Transform:
  m_CorrespondingSourceObject: {fileID: 400000, guid: 06c233e130160473fa9e8ce5a4bbd5c4,
    type: 3}
  m_PrefabInstance: {fileID: 2316203518905812642}
  m_PrefabAsset: {fileID: 0}
--- !u!1001 &2316203519034936600
PrefabInstance:
  m_ObjectHideFlags: 0
  serializedVersion: 2
  m_Modification:
    m_TransformParent: {fileID: 2316203518513525342}
    m_Modifications:
    - target: {fileID: 100000, guid: f9c4efeaf2929440f8e8b566b4562e29, type: 3}
      propertyPath: m_Name
      value: WallIntersection1 (2)
      objectReference: {fileID: 0}
    - target: {fileID: 100000, guid: f9c4efeaf2929440f8e8b566b4562e29, type: 3}
      propertyPath: m_StaticEditorFlags
      value: 4294967295
      objectReference: {fileID: 0}
    - target: {fileID: 400000, guid: f9c4efeaf2929440f8e8b566b4562e29, type: 3}
      propertyPath: m_LocalPosition.x
      value: -1.2140849
      objectReference: {fileID: 0}
    - target: {fileID: 400000, guid: f9c4efeaf2929440f8e8b566b4562e29, type: 3}
      propertyPath: m_LocalPosition.y
      value: -0.58552736
      objectReference: {fileID: 0}
    - target: {fileID: 400000, guid: f9c4efeaf2929440f8e8b566b4562e29, type: 3}
      propertyPath: m_LocalPosition.z
      value: -0.8884578
      objectReference: {fileID: 0}
    - target: {fileID: 400000, guid: f9c4efeaf2929440f8e8b566b4562e29, type: 3}
      propertyPath: m_LocalRotation.x
      value: -0
      objectReference: {fileID: 0}
    - target: {fileID: 400000, guid: f9c4efeaf2929440f8e8b566b4562e29, type: 3}
      propertyPath: m_LocalRotation.y
      value: 0.38268343
      objectReference: {fileID: 0}
    - target: {fileID: 400000, guid: f9c4efeaf2929440f8e8b566b4562e29, type: 3}
      propertyPath: m_LocalRotation.z
      value: -0
      objectReference: {fileID: 0}
    - target: {fileID: 400000, guid: f9c4efeaf2929440f8e8b566b4562e29, type: 3}
      propertyPath: m_LocalRotation.w
      value: 0.92387956
      objectReference: {fileID: 0}
    - target: {fileID: 400000, guid: f9c4efeaf2929440f8e8b566b4562e29, type: 3}
      propertyPath: m_RootOrder
      value: 8
      objectReference: {fileID: 0}
    - target: {fileID: 400000, guid: f9c4efeaf2929440f8e8b566b4562e29, type: 3}
      propertyPath: m_LocalEulerAnglesHint.x
      value: 0
      objectReference: {fileID: 0}
    - target: {fileID: 400000, guid: f9c4efeaf2929440f8e8b566b4562e29, type: 3}
      propertyPath: m_LocalEulerAnglesHint.y
      value: 45
      objectReference: {fileID: 0}
    - target: {fileID: 400000, guid: f9c4efeaf2929440f8e8b566b4562e29, type: 3}
      propertyPath: m_LocalEulerAnglesHint.z
      value: 0
      objectReference: {fileID: 0}
    - target: {fileID: 2300000, guid: f9c4efeaf2929440f8e8b566b4562e29, type: 3}
      propertyPath: m_Materials.Array.data[0]
      value: 
      objectReference: {fileID: 2100000, guid: b7af82318fff149f7833d06387582e19, type: 2}
    m_RemovedComponents: []
  m_SourcePrefab: {fileID: 100100000, guid: f9c4efeaf2929440f8e8b566b4562e29, type: 3}
--- !u!4 &2316203519034546072 stripped
Transform:
  m_CorrespondingSourceObject: {fileID: 400000, guid: f9c4efeaf2929440f8e8b566b4562e29,
    type: 3}
  m_PrefabInstance: {fileID: 2316203519034936600}
  m_PrefabAsset: {fileID: 0}
--- !u!1001 &2316203519192092134
PrefabInstance:
  m_ObjectHideFlags: 0
  serializedVersion: 2
  m_Modification:
    m_TransformParent: {fileID: 2316203518513525342}
    m_Modifications:
    - target: {fileID: 100000, guid: f9c4efeaf2929440f8e8b566b4562e29, type: 3}
      propertyPath: m_Name
      value: WallIntersection1 (1)
      objectReference: {fileID: 0}
    - target: {fileID: 100000, guid: f9c4efeaf2929440f8e8b566b4562e29, type: 3}
      propertyPath: m_StaticEditorFlags
      value: 4294967295
      objectReference: {fileID: 0}
    - target: {fileID: 400000, guid: f9c4efeaf2929440f8e8b566b4562e29, type: 3}
      propertyPath: m_LocalPosition.x
      value: 1.1408151
      objectReference: {fileID: 0}
    - target: {fileID: 400000, guid: f9c4efeaf2929440f8e8b566b4562e29, type: 3}
      propertyPath: m_LocalPosition.y
      value: -0.5855374
      objectReference: {fileID: 0}
    - target: {fileID: 400000, guid: f9c4efeaf2929440f8e8b566b4562e29, type: 3}
      propertyPath: m_LocalPosition.z
      value: -0.8884578
      objectReference: {fileID: 0}
    - target: {fileID: 400000, guid: f9c4efeaf2929440f8e8b566b4562e29, type: 3}
      propertyPath: m_LocalRotation.x
      value: -0
      objectReference: {fileID: 0}
    - target: {fileID: 400000, guid: f9c4efeaf2929440f8e8b566b4562e29, type: 3}
      propertyPath: m_LocalRotation.y
      value: -0.38268343
      objectReference: {fileID: 0}
    - target: {fileID: 400000, guid: f9c4efeaf2929440f8e8b566b4562e29, type: 3}
      propertyPath: m_LocalRotation.z
      value: -0
      objectReference: {fileID: 0}
    - target: {fileID: 400000, guid: f9c4efeaf2929440f8e8b566b4562e29, type: 3}
      propertyPath: m_LocalRotation.w
      value: 0.92387956
      objectReference: {fileID: 0}
    - target: {fileID: 400000, guid: f9c4efeaf2929440f8e8b566b4562e29, type: 3}
      propertyPath: m_RootOrder
      value: 5
      objectReference: {fileID: 0}
    - target: {fileID: 400000, guid: f9c4efeaf2929440f8e8b566b4562e29, type: 3}
      propertyPath: m_LocalEulerAnglesHint.x
      value: 0
      objectReference: {fileID: 0}
    - target: {fileID: 400000, guid: f9c4efeaf2929440f8e8b566b4562e29, type: 3}
      propertyPath: m_LocalEulerAnglesHint.y
      value: -45
      objectReference: {fileID: 0}
    - target: {fileID: 400000, guid: f9c4efeaf2929440f8e8b566b4562e29, type: 3}
      propertyPath: m_LocalEulerAnglesHint.z
      value: 0
      objectReference: {fileID: 0}
    - target: {fileID: 2300000, guid: f9c4efeaf2929440f8e8b566b4562e29, type: 3}
      propertyPath: m_Materials.Array.data[0]
      value: 
      objectReference: {fileID: 2100000, guid: b7af82318fff149f7833d06387582e19, type: 2}
    m_RemovedComponents: []
  m_SourcePrefab: {fileID: 100100000, guid: f9c4efeaf2929440f8e8b566b4562e29, type: 3}
--- !u!4 &2316203519191963494 stripped
Transform:
  m_CorrespondingSourceObject: {fileID: 400000, guid: f9c4efeaf2929440f8e8b566b4562e29,
    type: 3}
  m_PrefabInstance: {fileID: 2316203519192092134}
  m_PrefabAsset: {fileID: 0}
--- !u!1001 &2316203519223726470
PrefabInstance:
  m_ObjectHideFlags: 0
  serializedVersion: 2
  m_Modification:
    m_TransformParent: {fileID: 2316203518513525342}
    m_Modifications:
    - target: {fileID: 100000, guid: ba9515a32ea084cf0b1832e4d456ecec, type: 3}
      propertyPath: m_Name
      value: WallIntersection3 (2)
      objectReference: {fileID: 0}
    - target: {fileID: 100000, guid: ba9515a32ea084cf0b1832e4d456ecec, type: 3}
      propertyPath: m_StaticEditorFlags
      value: 4294967295
      objectReference: {fileID: 0}
    - target: {fileID: 400000, guid: ba9515a32ea084cf0b1832e4d456ecec, type: 3}
      propertyPath: m_LocalPosition.x
      value: -1.3259848
      objectReference: {fileID: 0}
    - target: {fileID: 400000, guid: ba9515a32ea084cf0b1832e4d456ecec, type: 3}
      propertyPath: m_LocalPosition.y
      value: 0.73155266
      objectReference: {fileID: 0}
    - target: {fileID: 400000, guid: ba9515a32ea084cf0b1832e4d456ecec, type: 3}
      propertyPath: m_LocalPosition.z
      value: -0.999558
      objectReference: {fileID: 0}
    - target: {fileID: 400000, guid: ba9515a32ea084cf0b1832e4d456ecec, type: 3}
      propertyPath: m_LocalRotation.x
      value: -0
      objectReference: {fileID: 0}
    - target: {fileID: 400000, guid: ba9515a32ea084cf0b1832e4d456ecec, type: 3}
      propertyPath: m_LocalRotation.y
      value: 0.38268343
      objectReference: {fileID: 0}
    - target: {fileID: 400000, guid: ba9515a32ea084cf0b1832e4d456ecec, type: 3}
      propertyPath: m_LocalRotation.z
      value: -0
      objectReference: {fileID: 0}
    - target: {fileID: 400000, guid: ba9515a32ea084cf0b1832e4d456ecec, type: 3}
      propertyPath: m_LocalRotation.w
      value: 0.92387956
      objectReference: {fileID: 0}
    - target: {fileID: 400000, guid: ba9515a32ea084cf0b1832e4d456ecec, type: 3}
      propertyPath: m_RootOrder
      value: 10
      objectReference: {fileID: 0}
    - target: {fileID: 400000, guid: ba9515a32ea084cf0b1832e4d456ecec, type: 3}
      propertyPath: m_LocalEulerAnglesHint.x
      value: 0
      objectReference: {fileID: 0}
    - target: {fileID: 400000, guid: ba9515a32ea084cf0b1832e4d456ecec, type: 3}
      propertyPath: m_LocalEulerAnglesHint.y
      value: 45
      objectReference: {fileID: 0}
    - target: {fileID: 400000, guid: ba9515a32ea084cf0b1832e4d456ecec, type: 3}
      propertyPath: m_LocalEulerAnglesHint.z
      value: 0
      objectReference: {fileID: 0}
    - target: {fileID: 2300000, guid: ba9515a32ea084cf0b1832e4d456ecec, type: 3}
      propertyPath: m_Materials.Array.data[0]
      value: 
      objectReference: {fileID: 2100000, guid: 65424cb5f67f4418788e23c2be2ab06e, type: 2}
    m_RemovedComponents: []
  m_SourcePrefab: {fileID: 100100000, guid: ba9515a32ea084cf0b1832e4d456ecec, type: 3}
--- !u!4 &2316203519223339782 stripped
Transform:
  m_CorrespondingSourceObject: {fileID: 400000, guid: ba9515a32ea084cf0b1832e4d456ecec,
    type: 3}
  m_PrefabInstance: {fileID: 2316203519223726470}
  m_PrefabAsset: {fileID: 0}
--- !u!1001 &2316203519267734441
PrefabInstance:
  m_ObjectHideFlags: 0
  serializedVersion: 2
  m_Modification:
    m_TransformParent: {fileID: 2316203518513525342}
    m_Modifications:
    - target: {fileID: 100000, guid: 06c233e130160473fa9e8ce5a4bbd5c4, type: 3}
      propertyPath: m_Name
      value: WallIntersection2 (1)
      objectReference: {fileID: 0}
    - target: {fileID: 100000, guid: 06c233e130160473fa9e8ce5a4bbd5c4, type: 3}
      propertyPath: m_StaticEditorFlags
      value: 4294967295
      objectReference: {fileID: 0}
    - target: {fileID: 400000, guid: 06c233e130160473fa9e8ce5a4bbd5c4, type: 3}
      propertyPath: m_LocalPosition.x
      value: 1.2555151
      objectReference: {fileID: 0}
    - target: {fileID: 400000, guid: 06c233e130160473fa9e8ce5a4bbd5c4, type: 3}
      propertyPath: m_LocalPosition.y
      value: 0.071129665
      objectReference: {fileID: 0}
    - target: {fileID: 400000, guid: 06c233e130160473fa9e8ce5a4bbd5c4, type: 3}
      propertyPath: m_LocalPosition.z
      value: -0.9972577
      objectReference: {fileID: 0}
    - target: {fileID: 400000, guid: 06c233e130160473fa9e8ce5a4bbd5c4, type: 3}
      propertyPath: m_LocalRotation.x
      value: -0
      objectReference: {fileID: 0}
    - target: {fileID: 400000, guid: 06c233e130160473fa9e8ce5a4bbd5c4, type: 3}
      propertyPath: m_LocalRotation.y
      value: -0.38268343
      objectReference: {fileID: 0}
    - target: {fileID: 400000, guid: 06c233e130160473fa9e8ce5a4bbd5c4, type: 3}
      propertyPath: m_LocalRotation.z
      value: -0
      objectReference: {fileID: 0}
    - target: {fileID: 400000, guid: 06c233e130160473fa9e8ce5a4bbd5c4, type: 3}
      propertyPath: m_LocalRotation.w
      value: 0.92387956
      objectReference: {fileID: 0}
    - target: {fileID: 400000, guid: 06c233e130160473fa9e8ce5a4bbd5c4, type: 3}
      propertyPath: m_RootOrder
      value: 6
      objectReference: {fileID: 0}
    - target: {fileID: 400000, guid: 06c233e130160473fa9e8ce5a4bbd5c4, type: 3}
      propertyPath: m_LocalEulerAnglesHint.x
      value: 0
      objectReference: {fileID: 0}
    - target: {fileID: 400000, guid: 06c233e130160473fa9e8ce5a4bbd5c4, type: 3}
      propertyPath: m_LocalEulerAnglesHint.y
      value: -45
      objectReference: {fileID: 0}
    - target: {fileID: 400000, guid: 06c233e130160473fa9e8ce5a4bbd5c4, type: 3}
      propertyPath: m_LocalEulerAnglesHint.z
      value: 0
      objectReference: {fileID: 0}
    - target: {fileID: 2300000, guid: 06c233e130160473fa9e8ce5a4bbd5c4, type: 3}
      propertyPath: m_Materials.Array.data[0]
      value: 
      objectReference: {fileID: 2100000, guid: c84fc8a30e4d243798a7fe3095ce3d76, type: 2}
    m_RemovedComponents: []
  m_SourcePrefab: {fileID: 100100000, guid: 06c233e130160473fa9e8ce5a4bbd5c4, type: 3}
--- !u!4 &2316203519267346729 stripped
Transform:
  m_CorrespondingSourceObject: {fileID: 400000, guid: 06c233e130160473fa9e8ce5a4bbd5c4,
    type: 3}
  m_PrefabInstance: {fileID: 2316203519267734441}
  m_PrefabAsset: {fileID: 0}
--- !u!1001 &2316203519290853053
PrefabInstance:
  m_ObjectHideFlags: 0
  serializedVersion: 2
  m_Modification:
    m_TransformParent: {fileID: 2316203518513525342}
    m_Modifications:
    - target: {fileID: 100000, guid: 153c4c9e17e5c404d96492ed274b08fe, type: 3}
      propertyPath: m_Name
      value: IntersectionSideFloor (1)
      objectReference: {fileID: 0}
    - target: {fileID: 100000, guid: 153c4c9e17e5c404d96492ed274b08fe, type: 3}
      propertyPath: m_StaticEditorFlags
      value: 4294967295
      objectReference: {fileID: 0}
    - target: {fileID: 400000, guid: 153c4c9e17e5c404d96492ed274b08fe, type: 3}
      propertyPath: m_LocalPosition.x
      value: 0.9734154
      objectReference: {fileID: 0}
    - target: {fileID: 400000, guid: 153c4c9e17e5c404d96492ed274b08fe, type: 3}
      propertyPath: m_LocalPosition.y
      value: -0.96699566
      objectReference: {fileID: 0}
    - target: {fileID: 400000, guid: 153c4c9e17e5c404d96492ed274b08fe, type: 3}
      propertyPath: m_LocalPosition.z
      value: -0.26712418
      objectReference: {fileID: 0}
    - target: {fileID: 400000, guid: 153c4c9e17e5c404d96492ed274b08fe, type: 3}
      propertyPath: m_LocalRotation.x
      value: -0
      objectReference: {fileID: 0}
    - target: {fileID: 400000, guid: 153c4c9e17e5c404d96492ed274b08fe, type: 3}
      propertyPath: m_LocalRotation.y
      value: -0
      objectReference: {fileID: 0}
    - target: {fileID: 400000, guid: 153c4c9e17e5c404d96492ed274b08fe, type: 3}
      propertyPath: m_LocalRotation.z
      value: -0
      objectReference: {fileID: 0}
    - target: {fileID: 400000, guid: 153c4c9e17e5c404d96492ed274b08fe, type: 3}
      propertyPath: m_LocalRotation.w
      value: 1
      objectReference: {fileID: 0}
    - target: {fileID: 400000, guid: 153c4c9e17e5c404d96492ed274b08fe, type: 3}
      propertyPath: m_RootOrder
      value: 15
      objectReference: {fileID: 0}
    - target: {fileID: 400000, guid: 153c4c9e17e5c404d96492ed274b08fe, type: 3}
      propertyPath: m_LocalEulerAnglesHint.x
      value: 0
      objectReference: {fileID: 0}
    - target: {fileID: 400000, guid: 153c4c9e17e5c404d96492ed274b08fe, type: 3}
      propertyPath: m_LocalEulerAnglesHint.y
      value: 0
      objectReference: {fileID: 0}
    - target: {fileID: 400000, guid: 153c4c9e17e5c404d96492ed274b08fe, type: 3}
      propertyPath: m_LocalEulerAnglesHint.z
      value: 0
      objectReference: {fileID: 0}
    - target: {fileID: 2300000, guid: 153c4c9e17e5c404d96492ed274b08fe, type: 3}
      propertyPath: m_Materials.Array.data[0]
      value: 
      objectReference: {fileID: 2100000, guid: 73f473a5472e84ba7b92b1cb65cde658, type: 2}
    m_RemovedComponents: []
  m_SourcePrefab: {fileID: 100100000, guid: 153c4c9e17e5c404d96492ed274b08fe, type: 3}
--- !u!4 &2316203519290465341 stripped
Transform:
  m_CorrespondingSourceObject: {fileID: 400000, guid: 153c4c9e17e5c404d96492ed274b08fe,
    type: 3}
  m_PrefabInstance: {fileID: 2316203519290853053}
  m_PrefabAsset: {fileID: 0}
--- !u!1001 &2316203519455049537
PrefabInstance:
  m_ObjectHideFlags: 0
  serializedVersion: 2
  m_Modification:
    m_TransformParent: {fileID: 2316203518513525342}
    m_Modifications:
    - target: {fileID: 100000, guid: dddd5c0cb04c04afa9fccd6526cab02c, type: 3}
      propertyPath: m_Name
      value: Floor2 (4)
      objectReference: {fileID: 0}
    - target: {fileID: 100000, guid: dddd5c0cb04c04afa9fccd6526cab02c, type: 3}
      propertyPath: m_StaticEditorFlags
      value: 4294967295
      objectReference: {fileID: 0}
    - target: {fileID: 400000, guid: dddd5c0cb04c04afa9fccd6526cab02c, type: 3}
      propertyPath: m_LocalPosition.x
      value: -0.036584854
      objectReference: {fileID: 0}
    - target: {fileID: 400000, guid: dddd5c0cb04c04afa9fccd6526cab02c, type: 3}
      propertyPath: m_LocalPosition.y
      value: -0.95480984
      objectReference: {fileID: 0}
    - target: {fileID: 400000, guid: dddd5c0cb04c04afa9fccd6526cab02c, type: 3}
      propertyPath: m_LocalPosition.z
      value: 0.033242226
      objectReference: {fileID: 0}
    - target: {fileID: 400000, guid: dddd5c0cb04c04afa9fccd6526cab02c, type: 3}
      propertyPath: m_LocalRotation.x
      value: -0
      objectReference: {fileID: 0}
    - target: {fileID: 400000, guid: dddd5c0cb04c04afa9fccd6526cab02c, type: 3}
      propertyPath: m_LocalRotation.y
      value: -0
      objectReference: {fileID: 0}
    - target: {fileID: 400000, guid: dddd5c0cb04c04afa9fccd6526cab02c, type: 3}
      propertyPath: m_LocalRotation.z
      value: -0
      objectReference: {fileID: 0}
    - target: {fileID: 400000, guid: dddd5c0cb04c04afa9fccd6526cab02c, type: 3}
      propertyPath: m_LocalRotation.w
      value: 1
      objectReference: {fileID: 0}
    - target: {fileID: 400000, guid: dddd5c0cb04c04afa9fccd6526cab02c, type: 3}
      propertyPath: m_RootOrder
      value: 17
      objectReference: {fileID: 0}
    - target: {fileID: 400000, guid: dddd5c0cb04c04afa9fccd6526cab02c, type: 3}
      propertyPath: m_LocalEulerAnglesHint.x
      value: 0
      objectReference: {fileID: 0}
    - target: {fileID: 400000, guid: dddd5c0cb04c04afa9fccd6526cab02c, type: 3}
      propertyPath: m_LocalEulerAnglesHint.y
      value: 0
      objectReference: {fileID: 0}
    - target: {fileID: 400000, guid: dddd5c0cb04c04afa9fccd6526cab02c, type: 3}
      propertyPath: m_LocalEulerAnglesHint.z
      value: 0
      objectReference: {fileID: 0}
    - target: {fileID: 400000, guid: dddd5c0cb04c04afa9fccd6526cab02c, type: 3}
      propertyPath: m_LocalScale.x
      value: 1
      objectReference: {fileID: 0}
    - target: {fileID: 400000, guid: dddd5c0cb04c04afa9fccd6526cab02c, type: 3}
      propertyPath: m_LocalScale.y
      value: 1
      objectReference: {fileID: 0}
    - target: {fileID: 2300000, guid: dddd5c0cb04c04afa9fccd6526cab02c, type: 3}
      propertyPath: m_Materials.Array.data[0]
      value: 
      objectReference: {fileID: 2100000, guid: a1ecde157c64844cd91342234e9e354f, type: 2}
    m_RemovedComponents: []
  m_SourcePrefab: {fileID: 100100000, guid: dddd5c0cb04c04afa9fccd6526cab02c, type: 3}
--- !u!4 &2316203519455440321 stripped
Transform:
  m_CorrespondingSourceObject: {fileID: 400000, guid: dddd5c0cb04c04afa9fccd6526cab02c,
    type: 3}
  m_PrefabInstance: {fileID: 2316203519455049537}
  m_PrefabAsset: {fileID: 0}
--- !u!1001 &2316203519495500641
PrefabInstance:
  m_ObjectHideFlags: 0
  serializedVersion: 2
  m_Modification:
    m_TransformParent: {fileID: 2316203518513525342}
    m_Modifications:
    - target: {fileID: 8106396682052414484, guid: 51561c5ac6ad94dc2bc464238ad02aa4,
        type: 3}
      propertyPath: m_Name
      value: WallIntersection
      objectReference: {fileID: 0}
    - target: {fileID: 3787959570457860102, guid: 51561c5ac6ad94dc2bc464238ad02aa4,
        type: 3}
      propertyPath: m_LocalPosition.x
      value: 1.2335151
      objectReference: {fileID: 0}
    - target: {fileID: 3787959570457860102, guid: 51561c5ac6ad94dc2bc464238ad02aa4,
        type: 3}
      propertyPath: m_LocalPosition.y
      value: 0.11250766
      objectReference: {fileID: 0}
    - target: {fileID: 3787959570457860102, guid: 51561c5ac6ad94dc2bc464238ad02aa4,
        type: 3}
      propertyPath: m_LocalPosition.z
      value: 0.025942326
      objectReference: {fileID: 0}
    - target: {fileID: 3787959570457860102, guid: 51561c5ac6ad94dc2bc464238ad02aa4,
        type: 3}
      propertyPath: m_LocalRotation.x
      value: -0
      objectReference: {fileID: 0}
    - target: {fileID: 3787959570457860102, guid: 51561c5ac6ad94dc2bc464238ad02aa4,
        type: 3}
      propertyPath: m_LocalRotation.y
      value: -0
      objectReference: {fileID: 0}
    - target: {fileID: 3787959570457860102, guid: 51561c5ac6ad94dc2bc464238ad02aa4,
        type: 3}
      propertyPath: m_LocalRotation.z
      value: -0
      objectReference: {fileID: 0}
    - target: {fileID: 3787959570457860102, guid: 51561c5ac6ad94dc2bc464238ad02aa4,
        type: 3}
      propertyPath: m_LocalRotation.w
      value: 1
      objectReference: {fileID: 0}
    - target: {fileID: 3787959570457860102, guid: 51561c5ac6ad94dc2bc464238ad02aa4,
        type: 3}
      propertyPath: m_RootOrder
      value: 0
      objectReference: {fileID: 0}
    - target: {fileID: 3787959570457860102, guid: 51561c5ac6ad94dc2bc464238ad02aa4,
        type: 3}
      propertyPath: m_LocalEulerAnglesHint.x
      value: 0
      objectReference: {fileID: 0}
    - target: {fileID: 3787959570457860102, guid: 51561c5ac6ad94dc2bc464238ad02aa4,
        type: 3}
      propertyPath: m_LocalEulerAnglesHint.y
      value: 0
      objectReference: {fileID: 0}
    - target: {fileID: 3787959570457860102, guid: 51561c5ac6ad94dc2bc464238ad02aa4,
        type: 3}
      propertyPath: m_LocalEulerAnglesHint.z
      value: 0
      objectReference: {fileID: 0}
    m_RemovedComponents: []
  m_SourcePrefab: {fileID: 100100000, guid: 51561c5ac6ad94dc2bc464238ad02aa4, type: 3}
--- !u!4 &1492178002080394087 stripped
Transform:
  m_CorrespondingSourceObject: {fileID: 3787959570457860102, guid: 51561c5ac6ad94dc2bc464238ad02aa4,
    type: 3}
  m_PrefabInstance: {fileID: 2316203519495500641}
  m_PrefabAsset: {fileID: 0}
--- !u!1001 &2316203519515340439
PrefabInstance:
  m_ObjectHideFlags: 0
  serializedVersion: 2
  m_Modification:
    m_TransformParent: {fileID: 2316203518513525342}
    m_Modifications:
    - target: {fileID: 5257575861195027532, guid: d5d9b38faad724fa0855ec2bbd572999,
        type: 3}
      propertyPath: m_Name
      value: IntersectionSideFloor
      objectReference: {fileID: 0}
    - target: {fileID: 5304752588344341603, guid: d5d9b38faad724fa0855ec2bbd572999,
        type: 3}
      propertyPath: m_LocalPosition.x
      value: -1.0267048
      objectReference: {fileID: 0}
    - target: {fileID: 5304752588344341603, guid: d5d9b38faad724fa0855ec2bbd572999,
        type: 3}
      propertyPath: m_LocalPosition.y
      value: -0.96699566
      objectReference: {fileID: 0}
    - target: {fileID: 5304752588344341603, guid: d5d9b38faad724fa0855ec2bbd572999,
        type: 3}
      propertyPath: m_LocalPosition.z
      value: -0.26712418
      objectReference: {fileID: 0}
    - target: {fileID: 5304752588344341603, guid: d5d9b38faad724fa0855ec2bbd572999,
        type: 3}
      propertyPath: m_LocalRotation.x
      value: -0
      objectReference: {fileID: 0}
    - target: {fileID: 5304752588344341603, guid: d5d9b38faad724fa0855ec2bbd572999,
        type: 3}
      propertyPath: m_LocalRotation.y
      value: -0
      objectReference: {fileID: 0}
    - target: {fileID: 5304752588344341603, guid: d5d9b38faad724fa0855ec2bbd572999,
        type: 3}
      propertyPath: m_LocalRotation.z
      value: -0
      objectReference: {fileID: 0}
    - target: {fileID: 5304752588344341603, guid: d5d9b38faad724fa0855ec2bbd572999,
        type: 3}
      propertyPath: m_LocalRotation.w
      value: 1
      objectReference: {fileID: 0}
    - target: {fileID: 5304752588344341603, guid: d5d9b38faad724fa0855ec2bbd572999,
        type: 3}
      propertyPath: m_RootOrder
      value: 14
      objectReference: {fileID: 0}
    - target: {fileID: 5304752588344341603, guid: d5d9b38faad724fa0855ec2bbd572999,
        type: 3}
      propertyPath: m_LocalEulerAnglesHint.x
      value: 0
      objectReference: {fileID: 0}
    - target: {fileID: 5304752588344341603, guid: d5d9b38faad724fa0855ec2bbd572999,
        type: 3}
      propertyPath: m_LocalEulerAnglesHint.y
      value: 0
      objectReference: {fileID: 0}
    - target: {fileID: 5304752588344341603, guid: d5d9b38faad724fa0855ec2bbd572999,
        type: 3}
      propertyPath: m_LocalEulerAnglesHint.z
      value: 0
      objectReference: {fileID: 0}
    m_RemovedComponents: []
  m_SourcePrefab: {fileID: 100100000, guid: d5d9b38faad724fa0855ec2bbd572999, type: 3}
--- !u!4 &7618554052906949364 stripped
Transform:
  m_CorrespondingSourceObject: {fileID: 5304752588344341603, guid: d5d9b38faad724fa0855ec2bbd572999,
    type: 3}
  m_PrefabInstance: {fileID: 2316203519515340439}
  m_PrefabAsset: {fileID: 0}
--- !u!1001 &2316203519707268683
PrefabInstance:
  m_ObjectHideFlags: 0
  serializedVersion: 2
  m_Modification:
    m_TransformParent: {fileID: 2316203518513525342}
    m_Modifications:
    - target: {fileID: 100000, guid: ba9515a32ea084cf0b1832e4d456ecec, type: 3}
      propertyPath: m_Name
      value: WallIntersection3 (1)
      objectReference: {fileID: 0}
    - target: {fileID: 100000, guid: ba9515a32ea084cf0b1832e4d456ecec, type: 3}
      propertyPath: m_StaticEditorFlags
      value: 4294967295
      objectReference: {fileID: 0}
    - target: {fileID: 400000, guid: ba9515a32ea084cf0b1832e4d456ecec, type: 3}
      propertyPath: m_LocalPosition.x
      value: 1.2574152
      objectReference: {fileID: 0}
    - target: {fileID: 400000, guid: ba9515a32ea084cf0b1832e4d456ecec, type: 3}
      propertyPath: m_LocalPosition.y
      value: 0.7266026
      objectReference: {fileID: 0}
    - target: {fileID: 400000, guid: ba9515a32ea084cf0b1832e4d456ecec, type: 3}
      propertyPath: m_LocalPosition.z
      value: -0.995358
      objectReference: {fileID: 0}
    - target: {fileID: 400000, guid: ba9515a32ea084cf0b1832e4d456ecec, type: 3}
      propertyPath: m_LocalRotation.x
      value: -0
      objectReference: {fileID: 0}
    - target: {fileID: 400000, guid: ba9515a32ea084cf0b1832e4d456ecec, type: 3}
      propertyPath: m_LocalRotation.y
      value: -0.38268343
      objectReference: {fileID: 0}
    - target: {fileID: 400000, guid: ba9515a32ea084cf0b1832e4d456ecec, type: 3}
      propertyPath: m_LocalRotation.z
      value: -0
      objectReference: {fileID: 0}
    - target: {fileID: 400000, guid: ba9515a32ea084cf0b1832e4d456ecec, type: 3}
      propertyPath: m_LocalRotation.w
      value: 0.92387956
      objectReference: {fileID: 0}
    - target: {fileID: 400000, guid: ba9515a32ea084cf0b1832e4d456ecec, type: 3}
      propertyPath: m_RootOrder
      value: 7
      objectReference: {fileID: 0}
    - target: {fileID: 400000, guid: ba9515a32ea084cf0b1832e4d456ecec, type: 3}
      propertyPath: m_LocalEulerAnglesHint.x
      value: 0
      objectReference: {fileID: 0}
    - target: {fileID: 400000, guid: ba9515a32ea084cf0b1832e4d456ecec, type: 3}
      propertyPath: m_LocalEulerAnglesHint.y
      value: -45
      objectReference: {fileID: 0}
    - target: {fileID: 400000, guid: ba9515a32ea084cf0b1832e4d456ecec, type: 3}
      propertyPath: m_LocalEulerAnglesHint.z
      value: 0
      objectReference: {fileID: 0}
    - target: {fileID: 2300000, guid: ba9515a32ea084cf0b1832e4d456ecec, type: 3}
      propertyPath: m_Materials.Array.data[0]
      value: 
      objectReference: {fileID: 2100000, guid: 65424cb5f67f4418788e23c2be2ab06e, type: 2}
    m_RemovedComponents: []
  m_SourcePrefab: {fileID: 100100000, guid: ba9515a32ea084cf0b1832e4d456ecec, type: 3}
--- !u!4 &2316203519707667659 stripped
Transform:
  m_CorrespondingSourceObject: {fileID: 400000, guid: ba9515a32ea084cf0b1832e4d456ecec,
    type: 3}
  m_PrefabInstance: {fileID: 2316203519707268683}
  m_PrefabAsset: {fileID: 0}
--- !u!1001 &2316203519826570539
PrefabInstance:
  m_ObjectHideFlags: 0
  serializedVersion: 2
  m_Modification:
    m_TransformParent: {fileID: 2316203518513525342}
    m_Modifications:
    - target: {fileID: 100000, guid: e7b2394064b434dcd8acf90528275285, type: 3}
      propertyPath: m_Name
      value: WallIntersection (1)
      objectReference: {fileID: 0}
    - target: {fileID: 100000, guid: e7b2394064b434dcd8acf90528275285, type: 3}
      propertyPath: m_StaticEditorFlags
      value: 4294967295
      objectReference: {fileID: 0}
    - target: {fileID: 400000, guid: e7b2394064b434dcd8acf90528275285, type: 3}
      propertyPath: m_LocalPosition.x
      value: -1.3067
      objectReference: {fileID: 0}
    - target: {fileID: 400000, guid: e7b2394064b434dcd8acf90528275285, type: 3}
      propertyPath: m_LocalPosition.y
      value: 0.11251
      objectReference: {fileID: 0}
    - target: {fileID: 400000, guid: e7b2394064b434dcd8acf90528275285, type: 3}
      propertyPath: m_LocalPosition.z
      value: 0.04050207
      objectReference: {fileID: 0}
    - target: {fileID: 400000, guid: e7b2394064b434dcd8acf90528275285, type: 3}
      propertyPath: m_LocalRotation.x
      value: -0
      objectReference: {fileID: 0}
    - target: {fileID: 400000, guid: e7b2394064b434dcd8acf90528275285, type: 3}
      propertyPath: m_LocalRotation.y
      value: 1
      objectReference: {fileID: 0}
    - target: {fileID: 400000, guid: e7b2394064b434dcd8acf90528275285, type: 3}
      propertyPath: m_LocalRotation.z
      value: -0
      objectReference: {fileID: 0}
    - target: {fileID: 400000, guid: e7b2394064b434dcd8acf90528275285, type: 3}
      propertyPath: m_LocalRotation.w
      value: 0
      objectReference: {fileID: 0}
    - target: {fileID: 400000, guid: e7b2394064b434dcd8acf90528275285, type: 3}
      propertyPath: m_RootOrder
      value: 1
      objectReference: {fileID: 0}
    - target: {fileID: 400000, guid: e7b2394064b434dcd8acf90528275285, type: 3}
      propertyPath: m_LocalEulerAnglesHint.x
      value: 0
      objectReference: {fileID: 0}
    - target: {fileID: 400000, guid: e7b2394064b434dcd8acf90528275285, type: 3}
      propertyPath: m_LocalEulerAnglesHint.y
      value: 180
      objectReference: {fileID: 0}
    - target: {fileID: 400000, guid: e7b2394064b434dcd8acf90528275285, type: 3}
      propertyPath: m_LocalEulerAnglesHint.z
      value: 0
      objectReference: {fileID: 0}
    - target: {fileID: 2300000, guid: e7b2394064b434dcd8acf90528275285, type: 3}
      propertyPath: m_Materials.Array.data[0]
      value: 
      objectReference: {fileID: 2100000, guid: da36230c61a154acba2fe3f81813150a, type: 2}
    m_RemovedComponents: []
  m_SourcePrefab: {fileID: 100100000, guid: e7b2394064b434dcd8acf90528275285, type: 3}
--- !u!4 &2316203519826442155 stripped
Transform:
  m_CorrespondingSourceObject: {fileID: 400000, guid: e7b2394064b434dcd8acf90528275285,
    type: 3}
  m_PrefabInstance: {fileID: 2316203519826570539}
  m_PrefabAsset: {fileID: 0}
--- !u!1001 &2316203519878020394
PrefabInstance:
  m_ObjectHideFlags: 0
  serializedVersion: 2
  m_Modification:
    m_TransformParent: {fileID: 2316203518513525342}
    m_Modifications:
    - target: {fileID: 6262957146712176280, guid: d209b0b8383794987a2a03fbc8b1e920,
        type: 3}
      propertyPath: m_Name
      value: WallIntersection3
      objectReference: {fileID: 0}
    - target: {fileID: 7461057292163171361, guid: d209b0b8383794987a2a03fbc8b1e920,
        type: 3}
      propertyPath: m_LocalPosition.x
      value: 1.2512233
      objectReference: {fileID: 0}
    - target: {fileID: 7461057292163171361, guid: d209b0b8383794987a2a03fbc8b1e920,
        type: 3}
      propertyPath: m_LocalPosition.y
      value: 0.74800396
      objectReference: {fileID: 0}
    - target: {fileID: 7461057292163171361, guid: d209b0b8383794987a2a03fbc8b1e920,
        type: 3}
      propertyPath: m_LocalPosition.z
      value: 1.0653825
      objectReference: {fileID: 0}
    - target: {fileID: 7461057292163171361, guid: d209b0b8383794987a2a03fbc8b1e920,
        type: 3}
      propertyPath: m_LocalRotation.x
      value: -3.3138685e-17
      objectReference: {fileID: 0}
    - target: {fileID: 7461057292163171361, guid: d209b0b8383794987a2a03fbc8b1e920,
        type: 3}
      propertyPath: m_LocalRotation.y
      value: 0.92387944
      objectReference: {fileID: 0}
    - target: {fileID: 7461057292163171361, guid: d209b0b8383794987a2a03fbc8b1e920,
        type: 3}
      propertyPath: m_LocalRotation.z
      value: 3.3138685e-17
      objectReference: {fileID: 0}
    - target: {fileID: 7461057292163171361, guid: d209b0b8383794987a2a03fbc8b1e920,
        type: 3}
      propertyPath: m_LocalRotation.w
      value: -0.38268366
      objectReference: {fileID: 0}
    - target: {fileID: 7461057292163171361, guid: d209b0b8383794987a2a03fbc8b1e920,
        type: 3}
      propertyPath: m_RootOrder
      value: 4
      objectReference: {fileID: 0}
    - target: {fileID: 7461057292163171361, guid: d209b0b8383794987a2a03fbc8b1e920,
        type: 3}
      propertyPath: m_LocalEulerAnglesHint.x
      value: 0
      objectReference: {fileID: 0}
    - target: {fileID: 7461057292163171361, guid: d209b0b8383794987a2a03fbc8b1e920,
        type: 3}
      propertyPath: m_LocalEulerAnglesHint.y
      value: 0
      objectReference: {fileID: 0}
    - target: {fileID: 7461057292163171361, guid: d209b0b8383794987a2a03fbc8b1e920,
        type: 3}
      propertyPath: m_LocalEulerAnglesHint.z
      value: 0
      objectReference: {fileID: 0}
    m_RemovedComponents: []
  m_SourcePrefab: {fileID: 100100000, guid: d209b0b8383794987a2a03fbc8b1e920, type: 3}
--- !u!4 &5165574655770097931 stripped
Transform:
  m_CorrespondingSourceObject: {fileID: 7461057292163171361, guid: d209b0b8383794987a2a03fbc8b1e920,
    type: 3}
  m_PrefabInstance: {fileID: 2316203519878020394}
  m_PrefabAsset: {fileID: 0}
--- !u!1001 &2316203519963914321
PrefabInstance:
  m_ObjectHideFlags: 0
  serializedVersion: 2
  m_Modification:
    m_TransformParent: {fileID: 2316203518513525342}
    m_Modifications:
    - target: {fileID: 100000, guid: e554b1ced7e574e68b01a47c95fa9ad9, type: 3}
      propertyPath: m_Name
      value: Floor5 (3)
      objectReference: {fileID: 0}
    - target: {fileID: 400000, guid: e554b1ced7e574e68b01a47c95fa9ad9, type: 3}
      propertyPath: m_LocalPosition.x
      value: -0.036584854
      objectReference: {fileID: 0}
    - target: {fileID: 400000, guid: e554b1ced7e574e68b01a47c95fa9ad9, type: 3}
      propertyPath: m_LocalPosition.y
      value: -0.95503306
      objectReference: {fileID: 0}
    - target: {fileID: 400000, guid: e554b1ced7e574e68b01a47c95fa9ad9, type: 3}
      propertyPath: m_LocalPosition.z
      value: 1.1582422
      objectReference: {fileID: 0}
    - target: {fileID: 400000, guid: e554b1ced7e574e68b01a47c95fa9ad9, type: 3}
      propertyPath: m_LocalRotation.x
      value: -0
      objectReference: {fileID: 0}
    - target: {fileID: 400000, guid: e554b1ced7e574e68b01a47c95fa9ad9, type: 3}
      propertyPath: m_LocalRotation.y
      value: -0
      objectReference: {fileID: 0}
    - target: {fileID: 400000, guid: e554b1ced7e574e68b01a47c95fa9ad9, type: 3}
      propertyPath: m_LocalRotation.z
      value: -0
      objectReference: {fileID: 0}
    - target: {fileID: 400000, guid: e554b1ced7e574e68b01a47c95fa9ad9, type: 3}
      propertyPath: m_LocalRotation.w
      value: 1
      objectReference: {fileID: 0}
    - target: {fileID: 400000, guid: e554b1ced7e574e68b01a47c95fa9ad9, type: 3}
      propertyPath: m_RootOrder
      value: 18
      objectReference: {fileID: 0}
    - target: {fileID: 400000, guid: e554b1ced7e574e68b01a47c95fa9ad9, type: 3}
      propertyPath: m_LocalEulerAnglesHint.x
      value: 0
      objectReference: {fileID: 0}
    - target: {fileID: 400000, guid: e554b1ced7e574e68b01a47c95fa9ad9, type: 3}
      propertyPath: m_LocalEulerAnglesHint.y
      value: 0
      objectReference: {fileID: 0}
    - target: {fileID: 400000, guid: e554b1ced7e574e68b01a47c95fa9ad9, type: 3}
      propertyPath: m_LocalEulerAnglesHint.z
      value: 0
      objectReference: {fileID: 0}
    - target: {fileID: 2300000, guid: e554b1ced7e574e68b01a47c95fa9ad9, type: 3}
      propertyPath: m_Materials.Array.data[0]
      value: 
      objectReference: {fileID: 2100000, guid: 8a33980753f504f7da530fcbb60108bb, type: 2}
    m_RemovedComponents: []
  m_SourcePrefab: {fileID: 100100000, guid: e554b1ced7e574e68b01a47c95fa9ad9, type: 3}
--- !u!4 &2316203519963790033 stripped
Transform:
  m_CorrespondingSourceObject: {fileID: 400000, guid: e554b1ced7e574e68b01a47c95fa9ad9,
    type: 3}
  m_PrefabInstance: {fileID: 2316203519963914321}
  m_PrefabAsset: {fileID: 0}
--- !u!1001 &2316203519998228974
PrefabInstance:
  m_ObjectHideFlags: 0
  serializedVersion: 2
  m_Modification:
    m_TransformParent: {fileID: 2316203518513525342}
    m_Modifications:
    - target: {fileID: 100000, guid: d5db039f0039f48c79eec07d8b158f74, type: 3}
      propertyPath: m_Name
      value: TopWall4 (5)
      objectReference: {fileID: 0}
    - target: {fileID: 100000, guid: d5db039f0039f48c79eec07d8b158f74, type: 3}
      propertyPath: m_StaticEditorFlags
      value: 4294967295
      objectReference: {fileID: 0}
    - target: {fileID: 400000, guid: d5db039f0039f48c79eec07d8b158f74, type: 3}
      propertyPath: m_LocalPosition.x
      value: -0.036585
      objectReference: {fileID: 0}
    - target: {fileID: 400000, guid: d5db039f0039f48c79eec07d8b158f74, type: 3}
      propertyPath: m_LocalPosition.y
      value: 1.3765
      objectReference: {fileID: 0}
    - target: {fileID: 400000, guid: d5db039f0039f48c79eec07d8b158f74, type: 3}
      propertyPath: m_LocalPosition.z
      value: 0.77934
      objectReference: {fileID: 0}
    - target: {fileID: 400000, guid: d5db039f0039f48c79eec07d8b158f74, type: 3}
      propertyPath: m_LocalRotation.x
      value: 0
      objectReference: {fileID: 0}
    - target: {fileID: 400000, guid: d5db039f0039f48c79eec07d8b158f74, type: 3}
      propertyPath: m_LocalRotation.y
      value: -0
      objectReference: {fileID: 0}
    - target: {fileID: 400000, guid: d5db039f0039f48c79eec07d8b158f74, type: 3}
      propertyPath: m_LocalRotation.z
      value: -0
      objectReference: {fileID: 0}
    - target: {fileID: 400000, guid: d5db039f0039f48c79eec07d8b158f74, type: 3}
      propertyPath: m_LocalRotation.w
      value: 1
      objectReference: {fileID: 0}
    - target: {fileID: 400000, guid: d5db039f0039f48c79eec07d8b158f74, type: 3}
      propertyPath: m_RootOrder
      value: 20
      objectReference: {fileID: 0}
    - target: {fileID: 400000, guid: d5db039f0039f48c79eec07d8b158f74, type: 3}
      propertyPath: m_LocalEulerAnglesHint.x
      value: 0
      objectReference: {fileID: 0}
    - target: {fileID: 400000, guid: d5db039f0039f48c79eec07d8b158f74, type: 3}
      propertyPath: m_LocalEulerAnglesHint.y
      value: 0
      objectReference: {fileID: 0}
    - target: {fileID: 400000, guid: d5db039f0039f48c79eec07d8b158f74, type: 3}
      propertyPath: m_LocalEulerAnglesHint.z
      value: 0
      objectReference: {fileID: 0}
    - target: {fileID: 2300000, guid: d5db039f0039f48c79eec07d8b158f74, type: 3}
      propertyPath: m_Materials.Array.data[0]
      value: 
      objectReference: {fileID: 2100000, guid: 1949eb32d4bff4170aa413da81e1cd0d, type: 2}
    m_RemovedComponents: []
  m_SourcePrefab: {fileID: 100100000, guid: d5db039f0039f48c79eec07d8b158f74, type: 3}
--- !u!4 &2316203519998616430 stripped
Transform:
  m_CorrespondingSourceObject: {fileID: 400000, guid: d5db039f0039f48c79eec07d8b158f74,
    type: 3}
  m_PrefabInstance: {fileID: 2316203519998228974}
  m_PrefabAsset: {fileID: 0}
--- !u!1001 &2316203520053958300
PrefabInstance:
  m_ObjectHideFlags: 0
  serializedVersion: 2
  m_Modification:
    m_TransformParent: {fileID: 2316203518513525342}
    m_Modifications:
    - target: {fileID: 6262424598808253366, guid: 819c758ec1d154be9ac76b7394611c48,
        type: 3}
      propertyPath: m_Name
      value: WallIntersection1
      objectReference: {fileID: 0}
    - target: {fileID: 299294474322597540, guid: 819c758ec1d154be9ac76b7394611c48,
        type: 3}
      propertyPath: m_LocalPosition.x
      value: 1.1408384
      objectReference: {fileID: 0}
    - target: {fileID: 299294474322597540, guid: 819c758ec1d154be9ac76b7394611c48,
        type: 3}
      propertyPath: m_LocalPosition.y
      value: -0.5853295
      objectReference: {fileID: 0}
    - target: {fileID: 299294474322597540, guid: 819c758ec1d154be9ac76b7394611c48,
        type: 3}
      propertyPath: m_LocalPosition.z
      value: 0.95499754
      objectReference: {fileID: 0}
    - target: {fileID: 299294474322597540, guid: 819c758ec1d154be9ac76b7394611c48,
        type: 3}
      propertyPath: m_LocalRotation.x
      value: -0
      objectReference: {fileID: 0}
    - target: {fileID: 299294474322597540, guid: 819c758ec1d154be9ac76b7394611c48,
        type: 3}
      propertyPath: m_LocalRotation.y
      value: -0.92387956
      objectReference: {fileID: 0}
    - target: {fileID: 299294474322597540, guid: 819c758ec1d154be9ac76b7394611c48,
        type: 3}
      propertyPath: m_LocalRotation.z
      value: -0
      objectReference: {fileID: 0}
    - target: {fileID: 299294474322597540, guid: 819c758ec1d154be9ac76b7394611c48,
        type: 3}
      propertyPath: m_LocalRotation.w
      value: 0.38268343
      objectReference: {fileID: 0}
    - target: {fileID: 299294474322597540, guid: 819c758ec1d154be9ac76b7394611c48,
        type: 3}
      propertyPath: m_RootOrder
      value: 2
      objectReference: {fileID: 0}
    - target: {fileID: 299294474322597540, guid: 819c758ec1d154be9ac76b7394611c48,
        type: 3}
      propertyPath: m_LocalEulerAnglesHint.x
      value: 0
      objectReference: {fileID: 0}
    - target: {fileID: 299294474322597540, guid: 819c758ec1d154be9ac76b7394611c48,
        type: 3}
      propertyPath: m_LocalEulerAnglesHint.y
      value: -135
      objectReference: {fileID: 0}
    - target: {fileID: 299294474322597540, guid: 819c758ec1d154be9ac76b7394611c48,
        type: 3}
      propertyPath: m_LocalEulerAnglesHint.z
      value: 0
      objectReference: {fileID: 0}
    m_RemovedComponents: []
  m_SourcePrefab: {fileID: 100100000, guid: 819c758ec1d154be9ac76b7394611c48, type: 3}
--- !u!4 &2595059000658559032 stripped
Transform:
  m_CorrespondingSourceObject: {fileID: 299294474322597540, guid: 819c758ec1d154be9ac76b7394611c48,
    type: 3}
  m_PrefabInstance: {fileID: 2316203520053958300}
  m_PrefabAsset: {fileID: 0}
--- !u!1001 &2316203520275121273
PrefabInstance:
  m_ObjectHideFlags: 0
  serializedVersion: 2
  m_Modification:
    m_TransformParent: {fileID: 2316203518513525342}
    m_Modifications:
    - target: {fileID: 100000, guid: 06c233e130160473fa9e8ce5a4bbd5c4, type: 3}
      propertyPath: m_Name
      value: WallIntersection2 (2)
      objectReference: {fileID: 0}
    - target: {fileID: 100000, guid: 06c233e130160473fa9e8ce5a4bbd5c4, type: 3}
      propertyPath: m_StaticEditorFlags
      value: 4294967295
      objectReference: {fileID: 0}
    - target: {fileID: 400000, guid: 06c233e130160473fa9e8ce5a4bbd5c4, type: 3}
      propertyPath: m_LocalPosition.x
      value: -1.3291849
      objectReference: {fileID: 0}
    - target: {fileID: 400000, guid: 06c233e130160473fa9e8ce5a4bbd5c4, type: 3}
      propertyPath: m_LocalPosition.y
      value: 0.074216664
      objectReference: {fileID: 0}
    - target: {fileID: 400000, guid: 06c233e130160473fa9e8ce5a4bbd5c4, type: 3}
      propertyPath: m_LocalPosition.z
      value: -1.0001578
      objectReference: {fileID: 0}
    - target: {fileID: 400000, guid: 06c233e130160473fa9e8ce5a4bbd5c4, type: 3}
      propertyPath: m_LocalRotation.x
      value: -0
      objectReference: {fileID: 0}
    - target: {fileID: 400000, guid: 06c233e130160473fa9e8ce5a4bbd5c4, type: 3}
      propertyPath: m_LocalRotation.y
      value: 0.38268343
      objectReference: {fileID: 0}
    - target: {fileID: 400000, guid: 06c233e130160473fa9e8ce5a4bbd5c4, type: 3}
      propertyPath: m_LocalRotation.z
      value: -0
      objectReference: {fileID: 0}
    - target: {fileID: 400000, guid: 06c233e130160473fa9e8ce5a4bbd5c4, type: 3}
      propertyPath: m_LocalRotation.w
      value: 0.92387956
      objectReference: {fileID: 0}
    - target: {fileID: 400000, guid: 06c233e130160473fa9e8ce5a4bbd5c4, type: 3}
      propertyPath: m_RootOrder
      value: 9
      objectReference: {fileID: 0}
    - target: {fileID: 400000, guid: 06c233e130160473fa9e8ce5a4bbd5c4, type: 3}
      propertyPath: m_LocalEulerAnglesHint.x
      value: 0
      objectReference: {fileID: 0}
    - target: {fileID: 400000, guid: 06c233e130160473fa9e8ce5a4bbd5c4, type: 3}
      propertyPath: m_LocalEulerAnglesHint.y
      value: 45
      objectReference: {fileID: 0}
    - target: {fileID: 400000, guid: 06c233e130160473fa9e8ce5a4bbd5c4, type: 3}
      propertyPath: m_LocalEulerAnglesHint.z
      value: 0
      objectReference: {fileID: 0}
    - target: {fileID: 2300000, guid: 06c233e130160473fa9e8ce5a4bbd5c4, type: 3}
      propertyPath: m_Materials.Array.data[0]
      value: 
      objectReference: {fileID: 2100000, guid: c84fc8a30e4d243798a7fe3095ce3d76, type: 2}
    m_RemovedComponents: []
  m_SourcePrefab: {fileID: 100100000, guid: 06c233e130160473fa9e8ce5a4bbd5c4, type: 3}
--- !u!4 &2316203520275259129 stripped
Transform:
  m_CorrespondingSourceObject: {fileID: 400000, guid: 06c233e130160473fa9e8ce5a4bbd5c4,
    type: 3}
  m_PrefabInstance: {fileID: 2316203520275121273}
  m_PrefabAsset: {fileID: 0}
--- !u!1001 &2316203520362036302
PrefabInstance:
  m_ObjectHideFlags: 0
  serializedVersion: 2
  m_Modification:
    m_TransformParent: {fileID: 2316203518513525342}
    m_Modifications:
    - target: {fileID: 100000, guid: f9c4efeaf2929440f8e8b566b4562e29, type: 3}
      propertyPath: m_Name
      value: WallIntersection1 (3)
      objectReference: {fileID: 0}
    - target: {fileID: 100000, guid: f9c4efeaf2929440f8e8b566b4562e29, type: 3}
      propertyPath: m_StaticEditorFlags
      value: 4294967295
      objectReference: {fileID: 0}
    - target: {fileID: 400000, guid: f9c4efeaf2929440f8e8b566b4562e29, type: 3}
      propertyPath: m_LocalPosition.x
      value: -1.2140849
      objectReference: {fileID: 0}
    - target: {fileID: 400000, guid: f9c4efeaf2929440f8e8b566b4562e29, type: 3}
      propertyPath: m_LocalPosition.y
      value: -0.58552736
      objectReference: {fileID: 0}
    - target: {fileID: 400000, guid: f9c4efeaf2929440f8e8b566b4562e29, type: 3}
      propertyPath: m_LocalPosition.z
      value: 0.9549422
      objectReference: {fileID: 0}
    - target: {fileID: 400000, guid: f9c4efeaf2929440f8e8b566b4562e29, type: 3}
      propertyPath: m_LocalRotation.x
      value: -0
      objectReference: {fileID: 0}
    - target: {fileID: 400000, guid: f9c4efeaf2929440f8e8b566b4562e29, type: 3}
      propertyPath: m_LocalRotation.y
      value: 0.92387956
      objectReference: {fileID: 0}
    - target: {fileID: 400000, guid: f9c4efeaf2929440f8e8b566b4562e29, type: 3}
      propertyPath: m_LocalRotation.z
      value: -0
      objectReference: {fileID: 0}
    - target: {fileID: 400000, guid: f9c4efeaf2929440f8e8b566b4562e29, type: 3}
      propertyPath: m_LocalRotation.w
      value: 0.38268343
      objectReference: {fileID: 0}
    - target: {fileID: 400000, guid: f9c4efeaf2929440f8e8b566b4562e29, type: 3}
      propertyPath: m_RootOrder
      value: 11
      objectReference: {fileID: 0}
    - target: {fileID: 400000, guid: f9c4efeaf2929440f8e8b566b4562e29, type: 3}
      propertyPath: m_LocalEulerAnglesHint.x
      value: 0
      objectReference: {fileID: 0}
    - target: {fileID: 400000, guid: f9c4efeaf2929440f8e8b566b4562e29, type: 3}
      propertyPath: m_LocalEulerAnglesHint.y
      value: 135
      objectReference: {fileID: 0}
    - target: {fileID: 400000, guid: f9c4efeaf2929440f8e8b566b4562e29, type: 3}
      propertyPath: m_LocalEulerAnglesHint.z
      value: 0
      objectReference: {fileID: 0}
    - target: {fileID: 2300000, guid: f9c4efeaf2929440f8e8b566b4562e29, type: 3}
      propertyPath: m_Materials.Array.data[0]
      value: 
      objectReference: {fileID: 2100000, guid: b7af82318fff149f7833d06387582e19, type: 2}
    m_RemovedComponents: []
  m_SourcePrefab: {fileID: 100100000, guid: f9c4efeaf2929440f8e8b566b4562e29, type: 3}
--- !u!4 &2316203520362424014 stripped
Transform:
  m_CorrespondingSourceObject: {fileID: 400000, guid: f9c4efeaf2929440f8e8b566b4562e29,
    type: 3}
  m_PrefabInstance: {fileID: 2316203520362036302}
  m_PrefabAsset: {fileID: 0}
